{
  "xmlToJson": {
    "ExteriorWalls": [

      {
        "source": "@index(/ACORD/InsuranceSvcRq/HomePolicyQuoteInqRq/HomeLineBusiness/Dwell/Construction)",
        "target": "property.exteriorWall.ref"
      },
      {
        "source": "/ACORD/InsuranceSvcRq/HomePolicyQuoteInqRq/HomeLineBusiness/Dwell/Construction",
        "targets": [
          {
            "source": "ExteriorWallMaterialCd",
            "target": "exteriorWall.*.constructionMaterial"
          },
          {
            "source": "ExteriorWallMaterialPct",
            "target": "exteriorWall.*.constructionMaterialPercentage"
          }
        ]
      }
    ]
  }
}