{
  "xmlToJson": {
    "Incident": [
      {
        "source": "/ACORD/InsuranceSvcRq/PersAutoPolicyQuoteInqRq/PersPolicy/AccidentViolation[starts-with(AccidentViolationRecordTypeCd/text(),'ACC') or AccidentViolationRecordTypeCd='THEFT' or AccidentViolationRecordTypeCd='ERS' or AccidentViolationRecordTypeCd='COMP']",
        "targets": [
          {
            "source": "DamageTotalAmt/Amt",
            "target": "incident.*.claim.lossAmount"
          },
          {
            "source": "./node()",
            "target": "incident.*.type",
            "resolver": "new String('INCIDENT_TYPE.CLAIM_OR_ACCIDENT')"
          },
          {
            "source": "AccidentViolationRecordTypeCd",
            "target": "incident.*.claim.description"
          },
          {
            "source": "@DriverRef",
            "target": "incident.*.driver.ref",
            "resolver": "#spelResolver('WalkIncidentToDriver', #contextForward)"
          },
          {
            "source": "AccidentViolationDt",
            "target": "incident.*.claim.date"
          }
        ]
      },
      {
        "source": "/ACORD/InsuranceSvcRq/PersAutoPolicyQuoteInqRq/PersPolicy/AccidentViolation[not(starts-with(AccidentViolationRecordTypeCd/text(),'ACC')) and AccidentViolationRecordTypeCd!='THEFT' and AccidentViolationRecordTypeCd!='ERS' and AccidentViolationRecordTypeCd!='COMP']",
        "targets": [
          {
            "source": "@DriverRef",
            "target": "incident.*.driver.ref",
            "resolver": "#spelResolver('WalkIncidentToDriver', #contextForward)"
          },
          {
            "source": "./node()",
            "target": "incident.*.type",
            "resolver": "new String('INCIDENT_TYPE.VIOLATION')"
          },
          {
            "source": "AccidentViolationRecordTypeCd",
            "target": "incident.*.violation.description"
          },
          {
            "source": "AccidentViolationDt",
            "target": "incident.*.violation.date"
          }
        ]
      }
    ]
  }
}
