{
  "xmlToJson": {
    "Policy": [
      {
        "source": "/ACORD/InsuranceSvcRq/PersAutoPolicyQuoteInqRq/PersPolicy/PersApplicationInfo",
        "targets": [
          {
            "source": "InsuredOrPrincipal/GeneralPartyInfo/NameInfo/TaxIdentity/TaxId",
            "target": "person.*.taxId"
          },
          {
            "source": "ResidenceOwnedRentedCd",
            "target": "residencyType"
          }
        ]
      },
      {
        "source": "@index(/ACORD/InsuranceSvcRq/PersAutoPolicyQuoteInqRq/Producer)",
        "target": "person.producer.ref"
      },
      {
        "source": "/ACORD/InsuranceSvcRq/PersAutoPolicyQuoteInqRq/Producer",
        "targets": [
          {
            "source": "ProducerInfo/ContractNumber",    
            "target": "producer.*.contract"
          }
        ]
      },
      {
        "source": "/ACORD/InsuranceSvcRq/HomePolicyQuoteInqRq/PersPolicy/ContractTerm/EffectiveDt",
        "target": "policy.home.effectiveDate"
      },
      {
        "source": "/ACORD/InsuranceSvcRq/HomePolicyQuoteInqRq/PersPolicy/ContractTerm/ExpirationDt",
        "target": "policy.home.expirationDate"
      },
      {
        "source": "/ACORD/InsuranceSvcRq/PersAutoPolicyQuoteInqRq/PersPolicy/ContractTerm/EffectiveDt",
        "target": "policy.auto.effectiveDate"
      },
      {
        "source": "/ACORD/InsuranceSvcRq/PersAutoPolicyQuoteInqRq/PersPolicy/ContractTerm/ExpirationDt",
        "target": "policy.auto.expirationDate"
      },
      {
        "source": "/ACORD/InsuranceSvcRq/PersAutoPolicyQuoteInqRq/PersPolicy/ContractTerm/EffectiveDt",
        "target": "offer.creationDate",
        "resolver": "#spelResolver('CreationDate', #contextForward)"
      },
      {
        "source": "/ACORD/InsuranceSvcRq/HomePolicyQuoteInqRq/PersPolicy/ContractTerm/EffectiveDt",
        "target": "offer.creationDate",
        "resolver": "#spelResolver('CreationDate', #contextForward)"
      },
      {
        "source": "/ACORD/InsuranceSvcRq/PersAutoPolicyQuoteInqRq/PersPolicy/ContractTerm/DurationPeriod[UnitMeasurementCd='MON']/NumUnits",
        "target": "policy.auto.durationPeriod"
      },
      {
        "source": "/ACORD/InsuranceSvcRq/PersAutoPolicyQuoteInqRq/PersPolicy/ContractTerm/DurationPeriod[UnitMeasurementCd='MONTHS']/NumUnits",
        "target": "policy.auto.durationPeriod"
      },
      {
        "source": "/ACORD/InsuranceSvcRq/PersAutoPolicyQuoteInqRq/PersPolicy/ContractTerm/DurationPeriod[UnitMeasurementCd='MONTH']/NumUnits",
        "target": "policy.auto.durationPeriod"
      },
      {     
        "source": "/ACORD/InsuranceSvcRq/PersAutoPolicyQuoteInqRq/PersPolicy/ControllingStateProvCd",
        "target": "policy.auto.baseState"
      },
      {
        "source": "/ACORD/InsuranceSvcRq/PersAutoPolicyQuoteInqRq/PersPolicy/VehicleRegistrationQue",
        
        "target": "policy.auto.vehicleRegistration"
      },
      {
        "source": "/ACORD/InsuranceSvcRq/PersAutoPolicyQuoteInqRq/PersPolicy/com.msagroup_SupportingHO",
        
        "target": "policy.auto.existingProduct"
      },
      {
        "source": "/ACORD/InsuranceSvcRq/SAPI.partner.experienceId",
        
        "target": "partner.experienceId"
      },
      {
        "source": "/ACORD/InsuranceSvcRq/RqUID",
        
        "target": "MSA.inquiryid"
      },
      {
        "source": "/ACORD/InsuranceSvcRq/HomePolicyQuoteInqRq/RqUID",
        
        "target": "inquiryId"
      },
      {
        "source": "/ACORD/InsuranceSvcRq/HomePolicyQuoteInqRq/RqUID",
        
        "target": "inquiryId"
      },
      {
        "source": "/ACORD/InsuranceSvcRq/HomePolicyQuoteInqRq/TransactionRequestDt",
        
        "target": "transactionDate"
      },
      {
        "source": "/ACORD/InsuranceSvcRq/HomePolicyQuoteInqRq/CurCd",
        
        "target": "currency"
      },
      {
        "source": "/ACORD/InsuranceSvcRq/HomePolicyQuoteInqRq/Producer",
        "targets": [
          {
            "source": "GeneralPartyInfo/NameInfo/PersonName/Surname",
            "target": "person.*.lastName"
          },
          {
            "source": "GeneralPartyInfo/NameInfo/PersonName/GivenName",
            "target": "person.*.firstName"
          },
          {
            "source": "GeneralPartyInfo/NameInfo/PersonName/OtherGivenName",
            "target": "person.*.middleName"
          },
          {
            "source": "GeneralPartyInfo/NameInfo/TaxIdentity/TaxIdTypeCd",
            "target": "person.*.taxType"
          },
          {
            "source": "GeneralPartyInfo/NameInfo/TaxIdentity/TaxId",
            "target": "person.*.taxId"
          },
          {
            "source": "GeneralPartyInfo/Communications/PhoneInfo[PhoneTypeCd='Phone']/PhoneNumber",
            "target": "person.*.phone"
          }
        ]
      },
      {
        "source": "@index(/ACORD/InsuranceSvcRq/HomePolicyQuoteInqRq/Producer)",
        "target": "producer.person.ref"
      },
      {
        "source": "/ACORD/InsuranceSvcRq/HomePolicyQuoteInqRq/Producer/GeneralPartyInfo/Addr",
        "targets": [
          {
            "source": "Addr1",
            
            
            "target": "address.*.line1"
          },
          {
            "source": "Addr2",
            
            
            "target": "address.*.line2"
          },
          {
            "source": "City",
            
            
            "target": "address.*.city"
          },
          {
            "source": "County",
            
            
            "target": "address.*.county"
          },
          {
            "source": "StateProvCd",
            
            
            "target": "address.*.state"
          },
          {
            "source": "PostalCode",
            
            
            "target": "address.*.zipcode"
          }
        ]
      },
      {
        "source": "@index(/ACORD/InsuranceSvcRq/HomePolicyQuoteInqRq/Producer/GeneralPartyInfo/Addr)",
        "target": "producer.address.ref"
      },
      {
        
        
        "source": "/ACORD/SignonRq/CustLoginId",
        "target": "agent.userId"
      },
      {
        
        
        "source": "/ACORD/InsuranceSvcRq/SAPI.partner.producerCode",
        "target": "agent.producerCode"
      },
      {
        "source": "/ACORD/InsuranceSvcRq/HomePolicyQuoteInqRq/Producer",
        "targets": [
          {
            "source": "ItemIdInfo/AgencyId",
            "target": "producer.producerId"
          },
          {
            "source": "ProducerInfo/ContractNumber",
            
            "target": "producer.*.contract"
          },
          {
            "source": "ProducerInfo/PlacingOffice",
            
            "target": "producer.*.office"
          },
          {
            "source": "Producer/ProducerInfo/ResProducerLicenseNumber",
            
            "target": "producer.*.licenseNumber"
          }
        ]
      },
      {
        
        "source": "/ACORD/InsuranceSvcRq/HomePolicyQuoteInqRq/InsuredOrPrincipal[InsuredOrPrincipalInfo/InsuredOrPrincipalRoleCd='Insured']",
        "targets": [
          {
            "source": "GeneralPartyInfo/NameInfo/PersonName/GivenName",
            "target": "person.*.firstName"
          },
          {
            "source": "GeneralPartyInfo/NameInfo/PersonName/Surname",
            "target": "person.*.lastName"
          },
          {
            "source": "GeneralPartyInfo/NameInfo/PersonName/NameSuffix",
            
            "target": "person.*.suffix"
          },
          {
            "source": "GeneralPartyInfo/NameInfo/PersonName/OtherGivenName",
            "target": "person.*.middleName"
          },
          {
            "source": "GeneralPartyInfo/NameInfo/TaxIdentity/TaxId",
            
            "target": "person.*.taxId"
          },
          {
            
            "source": "GeneralPartyInfo/Communications/PhoneInfo[PhoneTypeCd='Phone']/PhoneNumber",
            "target": "person.*.phone"
          },
          
          {
            "source": "InsuredOrPrincipalInfo/PersonInfo/BirthDt",
            "target": "person.*.dob"
          },
          {
            "source": "GeneralPartyInfo/Communications/PhoneInfo/PhoneTypeCd",
            "target": "person.*.phoneType"
          },
          {
            "source": "GeneralPartyInfo/Communications/PhoneInfo/CommunicationUseCd",
            
            "target": "person.*.communicationUse"
          },
          {
            "source": "GeneralPartyInfo/Communications/EmailInfo/EmailAddr",
            "target": "person.*.email"
          },
          {
            "source": "GeneralPartyInfo/Addr/Addr1",
            "target": "address.*.line1"
          },
          {
            "source": "GeneralPartyInfo/Addr/Addr2",
            "target": "address.*.line2"
          },
          {
            "source": "GeneralPartyInfo/Addr/City",
            "target": "address.*.city"
          },
          {
            "source": "GeneralPartyInfo/Addr/StateProvCd",
            "target": "address.*.state"
          },
          {
            "source": "GeneralPartyInfo/Addr/PostalCode",
            "target": "address.*.zipcode"
          }
        ]
      },
      {
        
        "source": "/ACORD/InsuranceSvcRq/HomePolicyQuoteInqRq/InsuredOrPrincipal[InsuredOrPrincipalInfo/InsuredOrPrincipalRoleCd!='Insured'] | /ACORD/InsuranceSvcRq/HomePolicyQuoteInqRq/InsuredOrPrincipal[count(InsuredOrPrincipalInfo/InsuredOrPrincipalRoleCd)=0]",
        "targets": [
          {
            "source": "GeneralPartyInfo/NameInfo/PersonName/GivenName",
            "target": "person.*.firstName"
          },

          {
            "source": "GeneralPartyInfo/NameInfo/PersonName/Surname",
            "target": "person.*.lastName"
          },
          {
            "source": "GeneralPartyInfo/NameInfo/PersonName/NameSuffix",
            
            "target": "person.*.suffix"
          },
          {
            "source": "GeneralPartyInfo/NameInfo/PersonName/OtherGivenName",
            "target": "person.*.middleName"
          },
          {
            "source": "GeneralPartyInfo/NameInfo/TaxIdentity/TaxId",   
            "target": "person.*.taxId"
          },
          {
            "source": "GeneralPartyInfo/Communications/PhoneInfo[PhoneTypeCd='Phone']/PhoneNumber",
            "target": "person.*.phone"
          },
          
          {
            "source": "InsuredOrPrincipalInfo/PersonInfo/BirthDt",
            "target": "person.*.dob"
          },
          {
            "source": "GeneralPartyInfo/Communications/PhoneInfo/PhoneTypeCd",
            "target": "person.*.phoneType"
          },
          {
            "source": "GeneralPartyInfo/Communications/PhoneInfo/CommunicationUseCd",
            
            "target": "person.*.communicationUse"
          },
          {
            "source": "GeneralPartyInfo/Communications/PhoneInfo[PhoneTypeCd='Phone' and CommunicationUseCd='Home']/PhoneNumber",
            "target": "person.*.homePhone"
          },
          {
            "source": "GeneralPartyInfo/Communications/PhoneInfo[CommunicationUseCd='Cell']/PhoneNumber",
            "target": "person.*.cellPhone"
          },
          {
            "source": "GeneralPartyInfo/Communications/PhoneInfo[CommunicationUseCd='Work']/PhoneNumber",
            "target": "person.*.workPhone"
          },
          {
            "source": "GeneralPartyInfo/Communications/EmailInfo/EmailAddr",
            "target": "person.*.email"
          },
          {
            "source": "GeneralPartyInfo/Addr/Addr1",
            "target": "address.*.line1"
          },
          {
            "source": "GeneralPartyInfo/Addr/Addr2",
            "target": "address.*.line2"
          },
          {
            "source": "GeneralPartyInfo/Addr/City",
            "target": "address.*.city"
          },
          {
            "source": "GeneralPartyInfo/Addr/StateProvCd",
            "target": "address.*.state"
          },
          {
            "source": "GeneralPartyInfo/Addr/PostalCode",
            "target": "address.*.zipcode"
          },
          {
            "source": "InsuredOrPrincipalInfo/PersonInfo/BirthDt",
            "target": "person.*.dob"
          },
          {
            "source": "InsuredOrPrincipalInfo/PersonInfo/OccupationDesc",
            
            "target": "person.*.occupation"
          },
          {
            "source": "ItemIdInfo/AgencyId",
            "target": "person.*.agency"
          },
          {
            "source": "InsuredOrPrincipalInfo/PersonInfo/TitleRelationshipCd",
            "target": "person.*.relationshipToApplicant"
          }
        ]
      },
      {
        "source": "@index(/ACORD/InsuranceSvcRq/HomePolicyQuoteInqRq/InsuredOrPrincipal[InsuredOrPrincipalInfo/InsuredOrPrincipalRoleCd!='Insured'] | /ACORD/InsuranceSvcRq/HomePolicyQuoteInqRq/InsuredOrPrincipal[count(InsuredOrPrincipalInfo/InsuredOrPrincipalRoleCd)=0])",
        "target": "secondaryInsured.person.ref"
      },
      {
        "source": "/ACORD/InsuranceSvcRq/HomePolicyQuoteInqRq/InsuredOrPrincipal/InsuredOrPrincipalInfo/PersonInfo/MiscParty/GeneralPartyInfo/NameInfo/CommlName/CommercialName",
        
        "target": "person.*.miscParty"
      },
      {
        "source": "/ACORD/InsuranceSvcRq/HomePolicyQuoteInqRq/InsuredOrPrincipal/InsuredOrPrincipalInfo/PersonInfo/MiscParty/MiscPartyInfo/MiscPartyRoleCd",
        
        "target": "person.*.miscPartyRole"
      },
      {
        "source": "/ACORD/InsuranceSvcRq/PersAutoPolicyQuoteInqRq/PersPolicy/Eligibility",
        
        "target": "policy.eligibility"
      },
      {
        "source": "/ACORD/InsuranceSvcRq/HomePolicyQuoteInqRq/PersPolicy/Eligibility/com.msa_afautoloss",
        
        "target": "policy.afAutoLoss"
      },
      {
        "source": "/ACORD/InsuranceSvcRq/HomePolicyQuoteInqRq/PersPolicy/Eligibility/com.msa_compautoloss",
        
        "target": "policy.compAutoLoss"
      },
      {
        "source": "/ACORD/InsuranceSvcRq/HomePolicyQuoteInqRq/PersPolicy/OtherOrPriorPolicy",
        "targets": [
  {
            "source": "InsurerName",
            
            "target": "person.*.insurancePrior.insurer"
          },
          {
            "source": "ContractTerm/ExpirationDt",
            
            "target": "person.*.insurancePrior.expirationDate"
          }

        ]
      },
      {
        "source": "/ACORD/InsuranceSvcRq/HomePolicyQuoteInqRq/PersPolicy/Loss",
        "targets": [
          {
            "source": "LossCauseCd",
            "target": "incident.*.lossDescription"
          },
          {
            "source": "LossDt",
            "target": "incident.*.lossDate"
          },
          {
            "source": "TotalPaidAmt/Amt",
            "target": "incident.*.totalAmountPaid"
          },
          {
            "source": "CatastropheLossInd",
            "target": "incident.*.catastrophicLoss"
          }
        ]
      },
      {
        "source": "/ACORD/InsuranceSvcRq/HomePolicyQuoteInqRq/InsuredOrPrincipal[InsuredOrPrincipalInfo/InsuredOrPrincipalRoleCd='Insured']/GeneralPartyInfo/Addr[AddrTypeCd='PhysicalRisk']",
        "targets": [
          {
            "source": "AddrTypeCd",
            "target": "address.*.addressType"
          },
          {
            "source": "Addr1",
            "target": "address.*.line1"
          },
          {
            "source": "Addr2",
            "target": "address.*.line2"
          },
          {
            "source": "City",
            "target": "address.*.city"
          },
          {
            "source": "County",
            "target": "address.*.county"
          },
          {
            "source": "StateProvCd",
            "target": "address.*.state"
          },
          {
            "source": "PostalCode",
            "target": "address.*.zipcode"
          },
          {            
            "source": "../../ItemIdInfo/AgencyId",
            
            "target": "address.*.agency"
          },
          {
            "source": "./node()",
            "target": "address.*.physicalRiskAddrFlag",
            "resolver": "new String('true')"
          }
        ]
      },
      {
        "source": "@index(/ACORD/InsuranceSvcRq/HomePolicyQuoteInqRq/InsuredOrPrincipal[InsuredOrPrincipalInfo/InsuredOrPrincipalRoleCd='Insured']/GeneralPartyInfo/Addr[AddrTypeCd='PhysicalRisk'])",
        "target": "primaryInsured.physicalRisk.address.ref"
      },
      {
        "source": "/ACORD/InsuranceSvcRq/HomePolicyQuoteInqRq/InsuredOrPrincipal[InsuredOrPrincipalInfo/InsuredOrPrincipalRoleCd='Insured']/GeneralPartyInfo/Addr[AddrTypeCd='PreviousAddress']",
        "targets": [
          {
            "source": "AddrTypeCd",
            "target": "address.*.addressType"
          },
          {
            "source": "Addr1",
            "target": "address.*.line1"
          },
          {
            "source": "Addr2",
            "target": "address.*.line2"
          },
          {
            "source": "City",
            "target": "address.*.city"
          },
          {
            "source": "County",
            "target": "address.*.county"
          },
          {
            "source": "StateProvCd",
            "target": "address.*.state"
          },
          {
            "source": "PostalCode",
            "target": "address.*.zipcode"
          },
          {
            "source": "../../ItemIdInfo/AgencyId",
            "target": "address.*.agency"
          },
          {
            "source": "./node()",
            "target": "address.*.previousAddrFlag",
            "resolver": "new String('true')"
          }
        ]
      },
      {
        "source": "@index(/ACORD/InsuranceSvcRq/HomePolicyQuoteInqRq/InsuredOrPrincipal[InsuredOrPrincipalInfo/InsuredOrPrincipalRoleCd='Insured']/GeneralPartyInfo/Addr[AddrTypeCd='PreviousAddress'])",
        "target": "primaryInsured.previous.address.ref"
      },
      {
        "source": "/ACORD/InsuranceSvcRq/HomePolicyQuoteInqRq/PersPolicy/PersApplicationInfo/LengthTimePreviousAddr/DurationPeriod" ,
        "targets": [
          {
            "source": "NumUnits" ,
            
            "target": "policy.previousAddress.lengthOfResidence"
          },
          {
            "source": "UnitMeasurementCd",
            
            "target": "policy.previousAddress.unitMeasurementCd"
          }
        ]
      },
      {
        "source": "/ACORD/InsuranceSvcRq/HomePolicyQuoteInqRq/HomeLineBusiness/Dwell/Coverage[boolean(Deductible) or boolean(EffectiveDt) or boolean(ExpirationDt)]",
        "targets": [
                ]

      },
      { 
        "source": "/ACORD/InsuranceSvcRq/HomePolicyQuoteInqRq/HomeLineBusiness/QuestionAnswer[QuestionCd='GENRL06']/YesNoCd",
        
        "target": "person.*.insurancePrior.lapse"
      },
      {
        "source": "/ACORD/InsuranceSvcRq/HomePolicyQuoteInqRq/HomeLineBusiness/QuestionAnswer[QuestionCd='GENRL44']/YesNoCd",
        
        "target": "property.hasWatercraft"
      },
      {
        "source": "/ACORD/InsuranceSvcRq/HomePolicyQuoteInqRq/HomeLineBusiness/QuestionAnswer[QuestionCd='GENRL19']/YesNoCd",
        "target": "property.ownedSnowmobiles"
      },
      {
        "source": "/ACORD/InsuranceSvcRq/HomePolicyQuoteInqRq/HomeLineBusiness/QuestionAnswer[QuestionCd='MSASwimmingPoolEligibility']/YesNoCd",
        
        "target": "property.poolEligibility"
      },
      {
        "source": "/ACORD/InsuranceSvcRq/HomePolicyQuoteInqRq/HomeLineBusiness/Dwell/DwellStateSupplement/DistanceToOceanOrOtherBodyWater/NumUnits",
        
        "target": "property.feetToWater"
      },
      {
        "source": "@index(/ACORD/InsuranceSvcRq/HomePolicyQuoteInqRq/HomeLineBusiness/Watercraft)",
        "target": "property.watercraft.ref"
      },
      {
        "source": "/ACORD/InsuranceSvcRq/HomePolicyQuoteInqRq/HomeLineBusiness/Watercraft",
        "targets": [
          {
            "source": "PropulsionTypeCd",
            
            
            "target": "watercraft.*.propulsionType"
          },
          {
            "source": "WaterUnitTypeCd",
            
            "target": "watercraft.*.watercraftType"
          },
          
          {
            "source": "Length/UnitMeasurementCd",
            
            "target": "watercraft.*.lengthUnit"
          },
          {
            "source": "Length/NumUnits",
            
            "target": "watercraft.*.length"
          },
          
          {
            "source": "Speed/UnitMeasurementCd",
            
            "target": "watercraft.*.speedUnit"
          },
          {
            "source": "Speed/NumUnits",
            
            "target": "watercraft.*.speed"
          },
          
          {
            "source": "Horsepower/UnitMeasurementCd",
            
            "target": "watercraft.*.powerUnit"
          },
          {
            "source": "Horsepower/NumUnits",
            
            "target": "watercraft.*.power"
          }
        ]
      },
      {
        "source": "/ACORD/InsuranceSvcRq/HomePolicyQuoteInqRq/HomeLineBusiness/Dwell/AnimalExposureInfo[AnimalTypeCd='Dog']",
        "targets": [
          {
            "source": "AnimalTypeCd",
            "target": "property.hasDogInHome"
          },
          { 
            "source": "BreedCd",
            "target": "property.hasHighRiskDog"
          },
          {
            "source": "BiteHistoryInd",
            "target": "animal.hasBiteIncident"
          }
        ]
      }
    ]
  }
}
