{
  "vehicle.*.primaryUse": {
    "BU": "VEHICLE_USE.PRIMARY.BUSINESS",
    "FM": "VEHICLE_USE.PRIMARY.FARMING",
    "PL": "VEHICLE_USE.PRIMARY.PLEASURE",
    "DW": "VEHICLE_USE.PRIMARY.TO_WORK_SCHOOL",
    "AC": "VEHICLE_USE.PRIMARY.BUSINESS",
    "CP": "VEHICLE_USE.PRIMARY.PLEASURE",
    "VE": "VEHICLE_USE.PRIMARY.TO_WORK_SCHOOL",
    "CL": "VEHICLE_USE.PRIMARY.BUSINESS",
    "S": "VEHICLE_USE.PRIMARY.TO_WORK_SCHOOL",
    "*": "VEHICLE_USE.PRIMARY.COMMUTE"
  },
  "vehicle.*.features.antitheft":{
    "P": "true",
    "N": "false",     "*": "false"
  },
  "vehicle.*.features.safety.airbag": {
    "FrontSide": "FEATURES.SAFETY.DRIVER_PASSENGER_SIDE_AIRBAG",
    "FrontBoth": "FEATURES.SAFETY.DRIVER_PASSENGER_AIRBAG",
    "None": "FEATURES.SAFETY.NONE",
    "Driver": "FEATURES.SAFETY.DRIVER_AIRBAG",
    "*": "FEATURES.SAFETY.NONE"
  }
}