ACORD,SAPI
/ACORD/InsuranceSvcRq/PersAutoPolicyQuoteInqRq/PersPolicy/PaymentOption/PaymentPlanCd,discount.fullPayment
/ACORD/InsuranceSvcRq/PersAutoPolicyQuoteInqRq/PersAutoLineBusiness/PersVeh/Coverage[CoverageCd='PAPERL']/CoverageCd,discount.paperless
/ACORD/InsuranceSvcRq/PersAutoPolicyQuoteInqRq/PersAutoLineBusiness/PersVeh/Coverage[CoverageCd='ACCT']/CoverageCd,discount.multiProduct
