ACORD,SAPI
/ACORD/InsuranceSvcRq/PersAutoPolicyQuoteInqRq/PersAutoLineBusiness/PersVeh/Coverage[CoverageCd='PD']/Option/OptionCd,offer.requestedCoverages.policy.propertyDamage
/ACORD/InsuranceSvcRq/PersAutoPolicyQuoteInqRq/PersAutoLineBusiness/PersVeh/Coverage[CoverageCd='PD']/Limit/FormatInteger,offer.requestedCoverages.policy.propertyDamage
/ACORD/InsuranceSvcRq/PersAutoPolicyQuoteInqRq/PersAutoLineBusiness/PersVeh/Coverage[CoverageCd='PAPERL']/CoverageCd,offer.requestedCoverages.policy.paperlessInd
/ACORD/InsuranceSvcRq/PersAutoPolicyQuoteInqRq/PersAutoLineBusiness/PersVeh/Coverage[CoverageCd='UNCSL']/Limit/FormatInteger,offer.requestedCoverages.policy.underinsuredMotoristCSL
/ACORD/InsuranceSvcRq/PersAutoPolicyQuoteInqRq/PersAutoLineBusiness/PersVeh/Coverage[CoverageCd='SORPE']/CoverageDesc,offer.requestedCoverages.vehicle.{ref}.custVehDescription
/ACORD/InsuranceSvcRq/PersAutoPolicyQuoteInqRq/PersAutoLineBusiness/PersVeh/Coverage[CoverageCd='CSL']/Option/OptionCd,offer.requestedCoverages.policy.bodilyInjuryPropertyDamageLiabilityCSL
/ACORD/InsuranceSvcRq/PersAutoPolicyQuoteInqRq/PersAutoLineBusiness/PersVeh/Coverage[CoverageCd='GAP']/CoverageCd,offer.requestedCoverages.vehicle.{ref}.loanLeaseCoverage
/ACORD/InsuranceSvcRq/PersAutoPolicyQuoteInqRq/PersAutoLineBusiness/PersVeh/Coverage[CoverageCd='COLL']/Option/OptionCd,offer.requestedCoverages.vehicle.{ref}.collision
/ACORD/InsuranceSvcRq/PersAutoPolicyQuoteInqRq/PersAutoLineBusiness/PersVeh/Coverage[CoverageCd='ADB']/Option/OptionCd,offer.requestedCoverages.policy.accidentalDeathAndDismemberment
/ACORD/InsuranceSvcRq/PersAutoPolicyQuoteInqRq/PersAutoLineBusiness/PersVeh/Coverage[CoverageCd='UMPD']/Limit/FormatInteger,offer.requestedCoverages.vehicle.{ref}.uninsuredPropertyDamage
/ACORD/InsuranceSvcRq/PersAutoPolicyQuoteInqRq/PersAutoLineBusiness/PersVeh/Coverage[CoverageCd='CUSTE']/Limit/FormatInteger,offer.requestedCoverages.vehicle.{ref}.customizedVehicle
/ACORD/InsuranceSvcRq/PersAutoPolicyQuoteInqRq/PersAutoLineBusiness/PersVeh/Coverage[CoverageCd='UMPD']/Option/OptionCd,offer.requestedCoverages.vehicle.{ref}.uninsuredPropertyDamage
/ACORD/InsuranceSvcRq/PersAutoPolicyQuoteInqRq/PersAutoLineBusiness/PersVeh/Coverage[CoverageCd='MEDPM']/Option/OptionCd,offer.requestedCoverages.policy.medical
/ACORD/InsuranceSvcRq/PersAutoPolicyQuoteInqRq/PersAutoLineBusiness/PersVeh/Coverage[CoverageCd='UMCSL']/Option/OptionCd,offer.requestedCoverages.policy.uninsuredMotoristCSL
/ACORD/InsuranceSvcRq/PersAutoPolicyQuoteInqRq/PersAutoLineBusiness/PersVeh/Coverage[CoverageCd='COLL']/Deductible/FormatInteger,offer.requestedCoverages.vehicle.{ref}.collision
/ACORD/InsuranceSvcRq/PersAutoPolicyQuoteInqRq/PersAutoLineBusiness/PersVeh/Coverage[CoverageCd='SORCV']/CoverageDesc,offer.requestedCoverages.vehicle.{ref}.custVehDescription
/ACORD/InsuranceSvcRq/PersAutoPolicyQuoteInqRq/PersAutoLineBusiness/PersVeh[1]/Coverage[CoverageCd='UM']/Option/OptionCd,offer.requestedCoverages.policy.uninsuredMotorist
/ACORD/InsuranceSvcRq/PersAutoPolicyQuoteInqRq/PersAutoLineBusiness/PersVeh/Coverage[CoverageCd='LEASE']/CoverageCd,offer.requestedCoverages.vehicle.{ref}.loanLeaseCoverage
/ACORD/InsuranceSvcRq/PersAutoPolicyQuoteInqRq/PersAutoLineBusiness/PersVeh/Coverage[CoverageCd='SORCV']/Limit/FormatInteger,offer.requestedCoverages.vehicle.{ref}.customizedVehicle
/ACORD/InsuranceSvcRq/PersAutoPolicyQuoteInqRq/PersAutoLineBusiness/PersVeh[1]/Coverage[CoverageCd='UM'],offer.requestedCoverages.policy.uninsuredMotorist
/ACORD/InsuranceSvcRq/PersAutoPolicyQuoteInqRq/PersAutoLineBusiness/PersVeh/Coverage[CoverageCd='CSL']/Limit/FormatInteger,offer.requestedCoverages.policy.bodilyInjuryPropertyDamageLiabilityCSL
/ACORD/InsuranceSvcRq/PersAutoPolicyQuoteInqRq/PersAutoLineBusiness/PersVeh/Coverage[CoverageCd='MSAG'],offer.requestedCoverages.vehicle.{ref}.goldBundle
/ACORD/InsuranceSvcRq/PersAutoPolicyQuoteInqRq/PersAutoLineBusiness/PersVeh/Coverage[CoverageCd='CUSTE']/CoverageDesc,offer.requestedCoverages.vehicle.{ref}.custVehDescription
/ACORD/InsuranceSvcRq/PersAutoPolicyQuoteInqRq/PersAutoLineBusiness/PersVeh/Coverage[CoverageCd='SORPE']/Limit/FormatInteger,offer.requestedCoverages.vehicle.{ref}.customizedVehicle
/ACORD/InsuranceSvcRq/PersAutoPolicyQuoteInqRq/PersAutoLineBusiness/PersVeh/Coverage[CoverageCd='BI']/Option/OptionCd,offer.requestedCoverages.policy.bodilyInjury
/ACORD/InsuranceSvcRq/PersAutoPolicyQuoteInqRq/PersAutoLineBusiness/PersVeh/Coverage[CoverageCd='MEDPM']/Limit/FormatInteger,offer.requestedCoverages.policy.medical
/ACORD/InsuranceSvcRq/PersAutoPolicyQuoteInqRq/PersAutoLineBusiness/PersVeh/@id,offer.requestedCoverages.policy.underInsuredMotorist
/ACORD/InsuranceSvcRq/PersAutoPolicyQuoteInqRq/PersAutoLineBusiness/PersVeh/Coverage[CoverageCd='COMP']/Option[OptionCd='REJ']/OptionCd,offer.requestedCoverages.vehicle.{ref}.comprehensive
/ACORD/InsuranceSvcRq/PersAutoPolicyQuoteInqRq/PersAutoLineBusiness/PersVeh/Coverage[CoverageCd='UNDUM']/Option/OptionCd,offer.requestedCoverages.policy.underInsuredMotorist
/ACORD/InsuranceSvcRq/PersAutoPolicyQuoteInqRq/PersAutoLineBusiness/PersVeh/Coverage[CoverageCd='MSAP'],offer.requestedCoverages.vehicle.{ref}.platinumBundle
/ACORD/InsuranceSvcRq/PersAutoPolicyQuoteInqRq/PersAutoLineBusiness/PersVeh/Coverage[CoverageCd='TL']/Limit/FormatInteger,offer.requestedCoverages.vehicle.{ref}.towingAndLabor
/ACORD/InsuranceSvcRq/PersAutoPolicyQuoteInqRq/PersAutoLineBusiness/PersVeh/Coverage[CoverageCd='COMP']/Option[OptionCd='G']/OptionCd,offer.requestedCoverages.vehicle.{ref}.fullGlass
/ACORD/InsuranceSvcRq/PersAutoPolicyQuoteInqRq/PersAutoLineBusiness/PersVeh/Coverage[CoverageCd='COMP']/Deductible/FormatInteger,offer.requestedCoverages.vehicle.{ref}.comprehensive
/ACORD/InsuranceSvcRq/PersAutoPolicyQuoteInqRq/PersAutoLineBusiness/PersVeh/Coverage[CoverageCd='UNCSL']/Option/OptionCd,offer.requestedCoverages.policy.underinsuredMotoristCSL
/ACORD/InsuranceSvcRq/PersAutoPolicyQuoteInqRq/PersAutoLineBusiness/PersVeh/Coverage[CoverageCd='UMCSL']/Limit/FormatInteger,offer.requestedCoverages.policy.uninsuredMotoristCSL
/ACORD/InsuranceSvcRq/PersAutoPolicyQuoteInqRq/PersAutoLineBusiness/PersVeh/Coverage[CoverageCd='ADB']/Limit/FormatInteger,offer.requestedCoverages.policy.accidentalDeathAndDismemberment
