ACORD,SAPI
/ACORD/InsuranceSvcRq/HomePolicyQuoteInqRq/HomeLineBusiness/Dwell/Coverage[CoverageCd='MEDPM']/Limit/FormatCurrencyAmt/Amt,property.requestedCoverages.medicalPaymentsToOthers
/ACORD/InsuranceSvcRq/HomePolicyQuoteInqRq/HomeLineBusiness/PropertySchedule[PropertyClassCd='MI']/ItemValueAmt/Amt,property.requestedCoverages.scheduledMusicalInstruments
/ACORD/InsuranceSvcRq/HomePolicyQuoteInqRq/HomeLineBusiness/Dwell/Coverage[CoverageCd='MIN']/CoverageCd,property.requestedCoverages.mineSubsidence
/ACORD/InsuranceSvcRq/HomePolicyQuoteInqRq/HomeLineBusiness/Dwell/Coverage[CoverageCd='MEDPM']/Limit/FormatInteger,property.requestedCoverages.medicalPaymentsToOthers
/ACORD/InsuranceSvcRq/HomePolicyQuoteInqRq/HomeLineBusiness/Dwell/Coverage[CoverageCd='CCEIO']/Limit/FormatInteger,property.requestedCoverages.electronicApparatusInAndOutOfVehicle
/ACORD/InsuranceSvcRq/HomePolicyQuoteInqRq/HomeLineBusiness/Dwell/Coverage[CoverageCd='BUSPR']/Limit/FormatInteger,property.requestedCoverages.businessProperty
/ACORD/InsuranceSvcRq/HomePolicyQuoteInqRq/HomeLineBusiness/Dwell/Coverage[CoverageCd='ACVRS']/CoverageCd,property.requestedCoverages.actualCashValueLossSettlement
/ACORD/InsuranceSvcRq/HomePolicyQuoteInqRq/HomeLineBusiness/Dwell/Coverage[CoverageCd='APPAW']/Limit/FormatInteger,property.requestedCoverages.personalPropertyAtOtherResidence
/ACORD/InsuranceSvcRq/HomePolicyQuoteInqRq/HomeLineBusiness/Dwell/Coverage[CoverageCd='BUS']/CoverageCd,property.requestedCoverages.businessPursuits
/ACORD/InsuranceSvcRq/HomePolicyQuoteInqRq/HomeLineBusiness/Dwell/Coverage[CoverageCd='PC']/CoverageCd,property.requestedCoverages.includeSpecialComputerCoverage
/ACORD/InsuranceSvcRq/HomePolicyQuoteInqRq/HomeLineBusiness/Dwell/Coverage[CoverageCd='CCFU']/Limit/FormatInteger,property.requestedCoverages.increasedCoverageCSpecialLiabilityLimitFur
/ACORD/InsuranceSvcRq/HomePolicyQuoteInqRq/HomeLineBusiness/Dwell/Coverage[CoverageCd='PL']/Limit/FormatCurrencyAmt/Amt,property.requestedCoverages.personalLiability
/ACORD/InsuranceSvcRq/HomePolicyQuoteInqRq/HomeLineBusiness/PropertySchedule[PropertyClassCd='CM']/ItemValueAmt/Amt,property.requestedCoverages.scheduledCameras
/ACORD/InsuranceSvcRq/HomePolicyQuoteInqRq/HomeLineBusiness/Dwell/Coverage[CoverageCd='ACCT']/CoverageCd,discounts.partnerAutoPolicy
/ACORD/InsuranceSvcRq/HomePolicyQuoteInqRq/HomeLineBusiness/Dwell/Coverage[CoverageCd='LOU']/Limit/FormatInteger,property.requestedCoverages.lossOfUse
/ACORD/InsuranceSvcRq/HomePolicyQuoteInqRq/HomeLineBusiness/PropertySchedule[PropertyClassCd='BY']/ItemValueAmt/Amt,property.requestedCoverages.scheduledBicycles
/ACORD/InsuranceSvcRq/HomePolicyQuoteInqRq/HomeLineBusiness/Dwell/Coverage[CoverageCd='SEWER']/Limit/FormatInteger,property.requestedCoverages.includeWaterBackup
/ACORD/InsuranceSvcRq/HomePolicyQuoteInqRq/HomeLineBusiness/PropertySchedule[PropertyClassCd='JL']/ItemValueAmt/Amt,property.requestedCoverages.scheduledJewelry
/ACORD/InsuranceSvcRq/HomePolicyQuoteInqRq/HomeLineBusiness/Dwell/Coverage[CoverageCd='MSAP']/CoverageCd,property.requestedCoverages.platinumBundle
/ACORD/InsuranceSvcRq/HomePolicyQuoteInqRq/HomeLineBusiness/Dwell/Coverage[CoverageCd='LACEQ']/Limit/FormatInteger,property.requestedCoverages.earthquakeLoss
/ACORD/InsuranceSvcRq/HomePolicyQuoteInqRq/HomeLineBusiness/Dwell/Coverage[CoverageCd='PL']/Limit/FormatInteger,property.requestedCoverages.personalLiability
/ACORD/InsuranceSvcRq/HomePolicyQuoteInqRq/HomeLineBusiness/Dwell/Coverage[CoverageCd='OS']/Limit/FormatCurrencyAmt/Amt,property.requestedCoverages.otherStructures
/ACORD/InsuranceSvcRq/HomePolicyQuoteInqRq/HomeLineBusiness/Dwell/Coverage[CoverageCd='SPPP']/CoverageCd,property.requestedCoverages.includeSpecialPersonalPropertyCoverage
/ACORD/InsuranceSvcRq/HomePolicyQuoteInqRq/HomeLineBusiness/Dwell/Coverage[CoverageCd='CDTCD']/Limit/FormatInteger,property.requestedCoverages.creditCardAndCounterfeitMoney
/ACORD/InsuranceSvcRq/HomePolicyQuoteInqRq/HomeLineBusiness/PropertySchedule[PropertyClassCd='FA']/ItemValueAmt/Amt,property.requestedCoverages.scheduledFineArts
/ACORD/InsuranceSvcRq/HomePolicyQuoteInqRq/HomeLineBusiness/Dwell/Coverage[CoverageCd='PIHOM']/CoverageCd,property.requestedCoverages.personalInjuryCoverage
/ACORD/InsuranceSvcRq/HomePolicyQuoteInqRq/HomeLineBusiness/Dwell/Coverage[CoverageCd='FRAUD']/CoverageCd,property.requestedCoverages.identityFraud
/ACORD/InsuranceSvcRq/HomePolicyQuoteInqRq/HomeLineBusiness/Dwell/Coverage[CoverageCd='DWELL']/Limit/FormatInteger,property.requestedCoverages.dwelling
/ACORD/InsuranceSvcRq/HomePolicyQuoteInqRq/HomeLineBusiness/PropertySchedule[PropertyClassCd='FR']/ItemValueAmt/Amt,property.requestedCoverages.scheduledFurs
/ACORD/InsuranceSvcRq/HomePolicyQuoteInqRq/HomeLineBusiness/PropertySchedule[PropertyClassCd='GF']/ItemValueAmt/Amt,property.requestedCoverages.scheduledGolfEquipment
/ACORD/InsuranceSvcRq/HomePolicyQuoteInqRq/HomeLineBusiness/Dwell/Coverage[CoverageCd='PP']/Limit/FormatInteger,property.requestedCoverages.personalProperty
/ACORD/InsuranceSvcRq/HomePolicyQuoteInqRq/HomeLineBusiness/Dwell/Coverage[CoverageCd='ERQK']/CoverageCd,property.requestedCoverages.includeEarthquake
/ACORD/InsuranceSvcRq/HomePolicyQuoteInqRq/HomeLineBusiness/Dwell/Coverage[CoverageCd='PP']/Limit/FormatCurrencyAmt/Amt,property.requestedCoverages.personalProperty
/ACORD/InsuranceSvcRq/HomePolicyQuoteInqRq/HomeLineBusiness/Dwell/Coverage[CoverageCd='OS']/Limit/FormatInteger,property.requestedCoverages.otherStructures
/ACORD/InsuranceSvcRq/HomePolicyQuoteInqRq/HomeLineBusiness/PropertySchedule[PropertyClassCd='SV']/ItemValueAmt/Amt,property.requestedCoverages.scheduledSilverWare
/ACORD/InsuranceSvcRq/HomePolicyQuoteInqRq/HomeLineBusiness/Dwell/Coverage[CoverageCd='PPREP']/CoverageCd,property.requestedCoverages.personalPropertyReplacementCost
/ACORD/InsuranceSvcRq/HomePolicyQuoteInqRq/HomeLineBusiness/Dwell/Coverage[CoverageCd='CCGU']/Limit/FormatInteger,property.requestedCoverages.increasedCoverageCSpecialLiabilityLimitGuns
/ACORD/InsuranceSvcRq/HomePolicyQuoteInqRq/HomeLineBusiness/Dwell/Coverage[CoverageCd='SPOIL']/CoverageCd,property.requestedCoverages.personalPropertyRefrigeration
/ACORD/InsuranceSvcRq/HomePolicyQuoteInqRq/HomeLineBusiness/Dwell/Coverage[CoverageCd='SRB']/Limit/FormatCurrencyAmt/Amt,property.requestedCoverages.secondBuildingAdditionsAndAlterations
/ACORD/InsuranceSvcRq/HomePolicyQuoteInqRq/HomeLineBusiness/Dwell/Coverage[CoverageCd='SEWER']/Limit/FormatCurrencyAmt/Amt,property.requestedCoverages.includeWaterBackup
/ACORD/InsuranceSvcRq/HomePolicyQuoteInqRq/HomeLineBusiness/PropertySchedule[PropertyClassCd='CN']/ItemValueAmt/Amt,property.requestedCoverages.scheduledCoins
/ACORD/InsuranceSvcRq/HomePolicyQuoteInqRq/HomeLineBusiness/Dwell/Coverage[CoverageCd='BOLAW']/Limit/FormatPct,property.requestedCoverages.buildingOrdinanceOrLaw
/ACORD/InsuranceSvcRq/HomePolicyQuoteInqRq/HomeLineBusiness/Dwell/Coverage[CoverageCd='CCSV']/Limit/FormatInteger,property.requestedCoverages.increasedCoverageCSpecialLiabilityLimitSilverware
/ACORD/InsuranceSvcRq/HomePolicyQuoteInqRq/HomeLineBusiness/Dwell/Coverage[CoverageCd='UNJWF']/Limit/FormatInteger,property.requestedCoverages.unscheduledJewelryWatchesFurs
/ACORD/InsuranceSvcRq/HomePolicyQuoteInqRq/HomeLineBusiness/Dwell/Coverage[CoverageCd='CCSC']/Limit/FormatInteger,property.requestedCoverages.increasedCoverageCSpecialLiabilityLimitSecurities
/ACORD/InsuranceSvcRq/HomePolicyQuoteInqRq/HomeLineBusiness/Dwell/Coverage[CoverageCd='BUSAH']/Limit/FormatInteger,property.requestedCoverages.businessPropertyOffPremises
/ACORD/InsuranceSvcRq/HomePolicyQuoteInqRq/HomeLineBusiness/PropertySchedule[PropertyClassCd='ST']/ItemValueAmt/Amt,property.requestedCoverages.scheduledStamps
/ACORD/InsuranceSvcRq/HomePolicyQuoteInqRq/HomeLineBusiness/Dwell/Coverage[CoverageCd='CCEAV']/Limit/FormatInteger,property.requestedCoverages.electronicApparatusInVehicle
/ACORD/InsuranceSvcRq/HomePolicyQuoteInqRq/HomeLineBusiness/Dwell/Coverage[CoverageCd='LAC']/Limit/FormatInteger,property.requestedCoverages.lossAssessment
/ACORD/InsuranceSvcRq/HomePolicyQuoteInqRq/HomeLineBusiness/Dwell/Coverage[CoverageCd='MSAG']/CoverageCd,property.requestedCoverages.goldBundle
/ACORD/InsuranceSvcRq/HomePolicyQuoteInqRq/HomeLineBusiness/Dwell/Coverage[CoverageCd='FVREP']/Limit/FormatPct,property.requestedCoverages.fullValueReplacementPct
/ACORD/InsuranceSvcRq/HomePolicyQuoteInqRq/HomeLineBusiness/Dwell/Coverage[CoverageCd='DWELL']/Limit/FormatCurrencyAmt/Amt,property.requestedCoverages.dwelling
/ACORD/InsuranceSvcRq/HomePolicyQuoteInqRq/HomeLineBusiness/Dwell/Coverage[CoverageCd='SRB']/Limit/FormatInteger,property.requestedCoverages.secondBuildingAdditionsAndAlterations
/ACORD/InsuranceSvcRq/HomePolicyQuoteInqRq/HomeLineBusiness/Dwell/Coverage[CoverageCd='CCMO']/Limit/FormatInteger,property.requestedCoverages.increasedCoverageCSpecialLiabilityLimitMoney
/ACORD/InsuranceSvcRq/HomePolicyQuoteInqRq/HomeLineBusiness/PropertySchedule[PropertyClassCd='FABR']/ItemValueAmt/Amt,property.requestedCoverages.scheduledFineArtsBreakage
