ACORD,SAPI
/ACORD/InsuranceSvcRq/HomePolicyQuoteInqRq/HomeLineBusiness/Dwell/Coverage/Deductible[DeductibleAppliesToCd='AllPeril']/FormatCurrencyAmt/Amt,deductibles.deductible
/ACORD/InsuranceSvcRq/HomePolicyQuoteInqRq/HomeLineBusiness/Dwell/Coverage/Deductible[DeductibleAppliesToCd='AllPeril']/FormatInteger,deductibles.deductible
/ACORD/InsuranceSvcRq/HomePolicyQuoteInqRq/HomeLineBusiness/Dwell/Coverage/Deductible[DeductibleTypeCd='FL' and DeductibleAppliesToCd='WindHail']/FormatInteger,deductible.coverageAWindHailFL
/ACORD/InsuranceSvcRq/HomePolicyQuoteInqRq/HomeLineBusiness/Dwell/Coverage/Deductible[DeductibleTypeCd='CL' and DeductibleAppliesToCd='AllPeril']/FormatPct,deductibles.deductiblePC
/ACORD/InsuranceSvcRq/HomePolicyQuoteInqRq/HomeLineBusiness/Dwell/Coverage/Deductible[DeductibleTypeCd='PC' and DeductibleAppliesToCd='WindHail']/FormatPct,deductible.coverageAWindHailPC
