ACORD,SAPI
/ACORD/InsuranceSvcRq/HomePolicyQuoteInqRq/InsuredOrPrincipal[InsuredOrPrincipalInfo/InsuredOrPrincipalRoleCd='Insured']/GeneralPartyInfo/Communications/PhoneInfo/CommunicationUseCd,person.{ref}.communicationUse
/ACORD/InsuranceSvcRq/HomePolicyQuoteInqRq/PersPolicy/com.msagroup_FCRA,primaryInsured.person.creditDisclosureFlag
/ACORD/InsuranceSvcRq/HomePolicyQuoteInqRq/InsuredOrPrincipal[InsuredOrPrincipalInfo/InsuredOrPrincipalRoleCd='Insured']/GeneralPartyInfo/Addr[AddrTypeCd='MailingAddress']/County,address.{ref}.county
/ACORD/InsuranceSvcRq/PersAutoPolicyQuoteInqRq/InsuredOrPrincipal[InsuredOrPrincipalInfo/InsuredOrPrincipalRoleCd='Insured']/GeneralPartyInfo/NameInfo/PersonName/Surname,person.{ref}.lastName
/ACORD/InsuranceSvcRq/PersAutoPolicyQuoteInqRq/InsuredOrPrincipal[InsuredOrPrincipalInfo/InsuredOrPrincipalRoleCd='Insured']/GeneralPartyInfo/NameInfo/PersonName/GivenName,person.{ref}.firstName
/ACORD/InsuranceSvcRq/PersAutoPolicyQuoteInqRq/InsuredOrPrincipal[InsuredOrPrincipalInfo/InsuredOrPrincipalRoleCd!='Insured'] | /ACORD/InsuranceSvcRq/PersAutoPolicyQuoteInqRq/InsuredOrPrincipal[count(InsuredOrPrincipalInfo/InsuredOrPrincipalRoleCd)=0]/GeneralPartyInfo/Communications/PhoneInfo/PhoneTypeCd,person.{ref}.phoneType
@index(/ACORD/InsuranceSvcRq/PersAutoPolicyQuoteInqRq/InsuredOrPrincipal[InsuredOrPrincipalInfo/InsuredOrPrincipalRoleCd!='Insured'] | /ACORD/InsuranceSvcRq/PersAutoPolicyQuoteInqRq/InsuredOrPrincipal[count(InsuredOrPrincipalInfo/InsuredOrPrincipalRoleCd)=0]),secondaryInsured.person.ref
/ACORD/InsuranceSvcRq/PersAutoPolicyQuoteInqRq/InsuredOrPrincipal[InsuredOrPrincipalInfo/InsuredOrPrincipalRoleCd!='Insured'] | /ACORD/InsuranceSvcRq/PersAutoPolicyQuoteInqRq/InsuredOrPrincipal[count(InsuredOrPrincipalInfo/InsuredOrPrincipalRoleCd)=0]/InsuredOrPrincipalInfo/PersonInfo/BirthDt,person.{ref}.dob
/ACORD/InsuranceSvcRq/PersAutoPolicyQuoteInqRq/InsuredOrPrincipal[InsuredOrPrincipalInfo/InsuredOrPrincipalRoleCd!='Insured'] | /ACORD/InsuranceSvcRq/PersAutoPolicyQuoteInqRq/InsuredOrPrincipal[count(InsuredOrPrincipalInfo/InsuredOrPrincipalRoleCd)=0]/GeneralPartyInfo/Communications/PhoneInfo[PhoneTypeCd='Phone' and CommunicationUseCd='Home']/PhoneNumber,person.{ref}.homePhone
/ACORD/InsuranceSvcRq/PersAutoPolicyQuoteInqRq/InsuredOrPrincipal[InsuredOrPrincipalInfo/InsuredOrPrincipalRoleCd!='Insured'] | /ACORD/InsuranceSvcRq/PersAutoPolicyQuoteInqRq/InsuredOrPrincipal[count(InsuredOrPrincipalInfo/InsuredOrPrincipalRoleCd)=0]/InsuredOrPrincipalInfo/PersonInfo/TitleRelationshipCd,person.{ref}.relationshipToApplicant
/ACORD/InsuranceSvcRq/HomePolicyQuoteInqRq/InsuredOrPrincipal[InsuredOrPrincipalInfo/InsuredOrPrincipalRoleCd='Insured']/GeneralPartyInfo/Communications/PhoneInfo/PhoneNumber,person.{ref}.phone
/ACORD/InsuranceSvcRq/PersAutoPolicyQuoteInqRq/InsuredOrPrincipal[InsuredOrPrincipalInfo/InsuredOrPrincipalRoleCd!='Insured'] | /ACORD/InsuranceSvcRq/PersAutoPolicyQuoteInqRq/InsuredOrPrincipal[count(InsuredOrPrincipalInfo/InsuredOrPrincipalRoleCd)=0]/GeneralPartyInfo/Communications/PhoneInfo[CommunicationUseCd='Cell']/PhoneNumber,person.{ref}.cellPhone
/ACORD/InsuranceSvcRq/PersAutoPolicyQuoteInqRq/InsuredOrPrincipal[InsuredOrPrincipalInfo/InsuredOrPrincipalRoleCd='Insured']/GeneralPartyInfo/NameInfo/PersonName/NameSuffix,person.{ref}.suffix
/ACORD/InsuranceSvcRq/HomePolicyQuoteInqRq/InsuredOrPrincipal[InsuredOrPrincipalInfo/InsuredOrPrincipalRoleCd='Insured']/InsuredOrPrincipalInfo/PersonInfo/BirthDt,person.{ref}.dob
@index(/ACORD/InsuranceSvcRq/PersAutoPolicyQuoteInqRq/InsuredOrPrincipal[InsuredOrPrincipalInfo/InsuredOrPrincipalRoleCd='Insured']),primaryInsured.person.ref
/ACORD/InsuranceSvcRq/PersAutoPolicyQuoteInqRq/InsuredOrPrincipal[InsuredOrPrincipalInfo/InsuredOrPrincipalRoleCd!='Insured'] | /ACORD/InsuranceSvcRq/PersAutoPolicyQuoteInqRq/InsuredOrPrincipal[count(InsuredOrPrincipalInfo/InsuredOrPrincipalRoleCd)=0]/GeneralPartyInfo/NameInfo/PersonName/NameSuffix,person.{ref}.suffix
/ACORD/InsuranceSvcRq/HomePolicyQuoteInqRq/InsuredOrPrincipal[InsuredOrPrincipalInfo/InsuredOrPrincipalRoleCd='Insured']/GeneralPartyInfo/Communications/PhoneInfo[CommunicationUseCd='Work']/PhoneNumber,person.{ref}.workPhone
/ACORD/InsuranceSvcRq/HomePolicyQuoteInqRq/InsuredOrPrincipal[InsuredOrPrincipalInfo/InsuredOrPrincipalRoleCd='Insured']/GeneralPartyInfo/NameInfo/PersonName/NameSuffix,person.{ref}.suffix
/ACORD/InsuranceSvcRq/HomePolicyQuoteInqRq/InsuredOrPrincipal[InsuredOrPrincipalInfo/InsuredOrPrincipalRoleCd='Insured']/GeneralPartyInfo/Communications/PhoneInfo[PhoneTypeCd='Phone' and CommunicationUseCd='Home']/PhoneNumber,person.{ref}.homePhone
/ACORD/InsuranceSvcRq/HomePolicyQuoteInqRq/InsuredOrPrincipal[InsuredOrPrincipalInfo/InsuredOrPrincipalRoleCd='Insured']/GeneralPartyInfo/Communications/PhoneInfo[CommunicationUseCd='Cell']/PhoneNumber,person.{ref}.cellPhone
/ACORD/InsuranceSvcRq/PersAutoPolicyQuoteInqRq/InsuredOrPrincipal[InsuredOrPrincipalInfo/InsuredOrPrincipalRoleCd='Insured']/InsuredOrPrincipalInfo/PersonInfo/GenderCd,person.{ref}.gender
@index(/ACORD/InsuranceSvcRq/HomePolicyQuoteInqRq/InsuredOrPrincipal[InsuredOrPrincipalInfo/InsuredOrPrincipalRoleCd='Insured']),primaryInsured.person.ref
/ACORD/InsuranceSvcRq/HomePolicyQuoteInqRq/InsuredOrPrincipal[InsuredOrPrincipalInfo/InsuredOrPrincipalRoleCd='Insured']/GeneralPartyInfo/Addr[AddrTypeCd='MailingAddress']/PostalCode,address.{ref}.zipcode
/ACORD/InsuranceSvcRq/PersAutoPolicyQuoteInqRq/InsuredOrPrincipal[InsuredOrPrincipalInfo/InsuredOrPrincipalRoleCd='Insured']/GeneralPartyInfo/NameInfo/TaxIdentity/TaxId,person.{ref}.taxId
/ACORD/InsuranceSvcRq/PersAutoPolicyQuoteInqRq/InsuredOrPrincipal[InsuredOrPrincipalInfo/InsuredOrPrincipalRoleCd!='Insured'] | /ACORD/InsuranceSvcRq/PersAutoPolicyQuoteInqRq/InsuredOrPrincipal[count(InsuredOrPrincipalInfo/InsuredOrPrincipalRoleCd)=0]/GeneralPartyInfo/NameInfo/TaxIdentity/TaxId,person.{ref}.taxId
/ACORD/InsuranceSvcRq/HomePolicyQuoteInqRq/InsuredOrPrincipal[InsuredOrPrincipalInfo/InsuredOrPrincipalRoleCd='Insured']/GeneralPartyInfo/NameInfo/PersonName/Surname,person.{ref}.lastName
/ACORD/InsuranceSvcRq/PersAutoPolicyQuoteInqRq/InsuredOrPrincipal[InsuredOrPrincipalInfo/InsuredOrPrincipalRoleCd!='Insured'] | /ACORD/InsuranceSvcRq/PersAutoPolicyQuoteInqRq/InsuredOrPrincipal[count(InsuredOrPrincipalInfo/InsuredOrPrincipalRoleCd)=0]/GeneralPartyInfo/NameInfo/PersonName/GivenName,person.{ref}.firstName
/ACORD/InsuranceSvcRq/PersAutoPolicyQuoteInqRq/InsuredOrPrincipal[InsuredOrPrincipalInfo/InsuredOrPrincipalRoleCd!='Insured'] | /ACORD/InsuranceSvcRq/PersAutoPolicyQuoteInqRq/InsuredOrPrincipal[count(InsuredOrPrincipalInfo/InsuredOrPrincipalRoleCd)=0]/GeneralPartyInfo/NameInfo/PersonName/Surname,person.{ref}.lastName
/ACORD/InsuranceSvcRq/PersAutoPolicyQuoteInqRq/InsuredOrPrincipal[InsuredOrPrincipalInfo/InsuredOrPrincipalRoleCd!='Insured'] | /ACORD/InsuranceSvcRq/PersAutoPolicyQuoteInqRq/InsuredOrPrincipal[count(InsuredOrPrincipalInfo/InsuredOrPrincipalRoleCd)=0]/GeneralPartyInfo/Communications/EmailInfo/EmailAddr,person.{ref}.email
/ACORD/InsuranceSvcRq/PersAutoPolicyQuoteInqRq/PersAutoLineBusiness/PersDriver/DriverInfo/QuestionAnswer[QuestionCd='AUTOP18']/YesNoCd,primaryInsured.person.creditDisclosureFlag
/ACORD/InsuranceSvcRq/HomePolicyQuoteInqRq/InsuredOrPrincipal[InsuredOrPrincipalInfo/InsuredOrPrincipalRoleCd='Insured']/InsuredOrPrincipalInfo/InsuredOrPrincipalRoleCd,person.{ref}.roleCd
/ACORD/InsuranceSvcRq/PersAutoPolicyQuoteInqRq/InsuredOrPrincipal[InsuredOrPrincipalInfo/InsuredOrPrincipalRoleCd!='Insured'] | /ACORD/InsuranceSvcRq/PersAutoPolicyQuoteInqRq/InsuredOrPrincipal[count(InsuredOrPrincipalInfo/InsuredOrPrincipalRoleCd)=0]/InsuredOrPrincipalInfo/PersonInfo/GenderCd,person.{ref}.gender
/ACORD/InsuranceSvcRq/HomePolicyQuoteInqRq/InsuredOrPrincipal[InsuredOrPrincipalInfo/InsuredOrPrincipalRoleCd='Insured']/GeneralPartyInfo/NameInfo/TaxIdentity/TaxId,person.{ref}.taxId
/ACORD/InsuranceSvcRq/HomePolicyQuoteInqRq/InsuredOrPrincipal[InsuredOrPrincipalInfo/InsuredOrPrincipalRoleCd='Insured']/GeneralPartyInfo/NameInfo/PersonName/OtherGivenName,person.{ref}.middleName
/ACORD/InsuranceSvcRq/PersAutoPolicyQuoteInqRq/InsuredOrPrincipal[InsuredOrPrincipalInfo/InsuredOrPrincipalRoleCd!='Insured'] | /ACORD/InsuranceSvcRq/PersAutoPolicyQuoteInqRq/InsuredOrPrincipal[count(InsuredOrPrincipalInfo/InsuredOrPrincipalRoleCd)=0]/GeneralPartyInfo/Communications/PhoneInfo[CommunicationUseCd='Work']/PhoneNumber,person.{ref}.workPhone
/ACORD/InsuranceSvcRq/HomePolicyQuoteInqRq/InsuredOrPrincipal[InsuredOrPrincipalInfo/InsuredOrPrincipalRoleCd='Insured']/GeneralPartyInfo/Communications/PhoneInfo/PhoneTypeCd,person.{ref}.phoneType
/ACORD/InsuranceSvcRq/PersAutoPolicyQuoteInqRq/InsuredOrPrincipal[InsuredOrPrincipalInfo/InsuredOrPrincipalRoleCd='Insured']/GeneralPartyInfo/Communications/PhoneInfo/PhoneTypeCd,person.{ref}.phoneType
/ACORD/InsuranceSvcRq/HomePolicyQuoteInqRq/InsuredOrPrincipal[InsuredOrPrincipalInfo/InsuredOrPrincipalRoleCd='Insured']/GeneralPartyInfo/NameInfo/TaxIdentity/TaxIdTypeCd,person.{ref}.taxType
/ACORD/InsuranceSvcRq/PersAutoPolicyQuoteInqRq/InsuredOrPrincipal[InsuredOrPrincipalInfo/InsuredOrPrincipalRoleCd!='Insured'] | /ACORD/InsuranceSvcRq/PersAutoPolicyQuoteInqRq/InsuredOrPrincipal[count(InsuredOrPrincipalInfo/InsuredOrPrincipalRoleCd)=0]/InsuredOrPrincipalInfo/PersonInfo/MaritalStatusCd,person.{ref}.maritalStatus
/ACORD/InsuranceSvcRq/PersAutoPolicyQuoteInqRq/InsuredOrPrincipal[InsuredOrPrincipalInfo/InsuredOrPrincipalRoleCd!='Insured'] | /ACORD/InsuranceSvcRq/PersAutoPolicyQuoteInqRq/InsuredOrPrincipal[count(InsuredOrPrincipalInfo/InsuredOrPrincipalRoleCd)=0]/GeneralPartyInfo/Communications/PhoneInfo/PhoneNumber,person.{ref}.phone
/ACORD/InsuranceSvcRq/HomePolicyQuoteInqRq/InsuredOrPrincipal[InsuredOrPrincipalInfo/InsuredOrPrincipalRoleCd='Insured']/GeneralPartyInfo/Addr[AddrTypeCd='MailingAddress']/AddrTypeCd,address.{ref}.addressType
/ACORD/InsuranceSvcRq/PersAutoPolicyQuoteInqRq/InsuredOrPrincipal[InsuredOrPrincipalInfo/InsuredOrPrincipalRoleCd='Insured']/InsuredOrPrincipalInfo/PersonInfo/MaritalStatusCd,person.{ref}.maritalStatus
/ACORD/InsuranceSvcRq/HomePolicyQuoteInqRq/InsuredOrPrincipal[InsuredOrPrincipalInfo/InsuredOrPrincipalRoleCd='Insured']/GeneralPartyInfo/Communications/EmailInfo/EmailAddr,person.{ref}.email
/ACORD/InsuranceSvcRq/HomePolicyQuoteInqRq/InsuredOrPrincipal[InsuredOrPrincipalInfo/InsuredOrPrincipalRoleCd='Insured']/GeneralPartyInfo/Addr[AddrTypeCd='MailingAddress']/City,address.{ref}.city
/ACORD/InsuranceSvcRq/PersAutoPolicyQuoteInqRq/InsuredOrPrincipal[InsuredOrPrincipalInfo/InsuredOrPrincipalRoleCd='Insured']/GeneralPartyInfo/Communications/PhoneInfo[PhoneTypeCd='Phone' and CommunicationUseCd='Home']/PhoneNumber,person.{ref}.homePhone
/ACORD/InsuranceSvcRq/PersAutoPolicyQuoteInqRq/InsuredOrPrincipal[InsuredOrPrincipalInfo/InsuredOrPrincipalRoleCd='Insured']/GeneralPartyInfo/NameInfo/PersonName/OtherGivenName,person.{ref}.middleName
/ACORD/InsuranceSvcRq/HomePolicyQuoteInqRq/InsuredOrPrincipal[InsuredOrPrincipalInfo/InsuredOrPrincipalRoleCd='Insured']/GeneralPartyInfo/NameInfo/PersonName/GivenName,person.{ref}.firstName
/ACORD/InsuranceSvcRq/PersAutoPolicyQuoteInqRq/InsuredOrPrincipal[InsuredOrPrincipalInfo/InsuredOrPrincipalRoleCd='Insured']/GeneralPartyInfo/Communications/PhoneInfo/PhoneNumber,person.{ref}.phone
/ACORD/InsuranceSvcRq/PersAutoPolicyQuoteInqRq/InsuredOrPrincipal[InsuredOrPrincipalInfo/InsuredOrPrincipalRoleCd!='Insured'] | /ACORD/InsuranceSvcRq/PersAutoPolicyQuoteInqRq/InsuredOrPrincipal[count(InsuredOrPrincipalInfo/InsuredOrPrincipalRoleCd)=0]/GeneralPartyInfo/NameInfo/PersonName/OtherGivenName,person.{ref}.middleName
/ACORD/InsuranceSvcRq/PersAutoPolicyQuoteInqRq/InsuredOrPrincipal[InsuredOrPrincipalInfo/InsuredOrPrincipalRoleCd='Insured']/InsuredOrPrincipalInfo/PersonInfo/BirthDt,person.{ref}.dob
@index(/ACORD/InsuranceSvcRq/HomePolicyQuoteInqRq/InsuredOrPrincipal[InsuredOrPrincipalInfo/InsuredOrPrincipalRoleCd='Insured']/GeneralPartyInfo/Addr[AddrTypeCd='MailingAddress']),primaryInsured.mailing.address.ref
/ACORD/InsuranceSvcRq/HomePolicyQuoteInqRq/InsuredOrPrincipal[InsuredOrPrincipalInfo/InsuredOrPrincipalRoleCd='Insured']/GeneralPartyInfo/Addr[AddrTypeCd='MailingAddress']/Addr2,address.{ref}.line2
/ACORD/InsuranceSvcRq/HomePolicyQuoteInqRq/InsuredOrPrincipal[InsuredOrPrincipalInfo/InsuredOrPrincipalRoleCd='Insured']/GeneralPartyInfo/Addr[AddrTypeCd='MailingAddress']/Addr1,address.{ref}.line1
/ACORD/InsuranceSvcRq/HomePolicyQuoteInqRq/InsuredOrPrincipal[InsuredOrPrincipalInfo/InsuredOrPrincipalRoleCd='Insured']/GeneralPartyInfo/Addr[AddrTypeCd='MailingAddress']/StateProvCd,address.{ref}.state
/ACORD/InsuranceSvcRq/PersAutoPolicyQuoteInqRq/InsuredOrPrincipal[InsuredOrPrincipalInfo/InsuredOrPrincipalRoleCd='Insured']/GeneralPartyInfo/Communications/PhoneInfo[CommunicationUseCd='Work']/PhoneNumber,person.{ref}.workPhone
/ACORD/InsuranceSvcRq/PersAutoPolicyQuoteInqRq/InsuredOrPrincipal[InsuredOrPrincipalInfo/InsuredOrPrincipalRoleCd='Insured']/GeneralPartyInfo/Communications/EmailInfo/EmailAddr,person.{ref}.email
/ACORD/InsuranceSvcRq/PersAutoPolicyQuoteInqRq/InsuredOrPrincipal[InsuredOrPrincipalInfo/InsuredOrPrincipalRoleCd='Insured']/GeneralPartyInfo/Communications/PhoneInfo[CommunicationUseCd='Cell']/PhoneNumber,person.{ref}.cellPhone
