ACORD,SAPI
/ACORD/InsuranceSvcRq/PersAutoPolicyQuoteInqRq/PersPolicy/ControllingStateProvCd,policy.auto.baseState
/ACORD/InsuranceSvcRq/HomePolicyQuoteInqRq/InsuredOrPrincipal[InsuredOrPrincipalInfo/InsuredOrPrincipalRoleCd='Insured']/GeneralPartyInfo/Addr[AddrTypeCd='PreviousAddress']/PostalCode,address.{ref}.zipcode
/ACORD/InsuranceSvcRq/HomePolicyQuoteInqRq/InsuredOrPrincipal[InsuredOrPrincipalInfo/InsuredOrPrincipalRoleCd!='Insured'] | /ACORD/InsuranceSvcRq/HomePolicyQuoteInqRq/InsuredOrPrincipal[count(InsuredOrPrincipalInfo/InsuredOrPrincipalRoleCd)=0]/GeneralPartyInfo/Communications/PhoneInfo[PhoneTypeCd='Phone']/PhoneNumber,person.{ref}.phone
/ACORD/InsuranceSvcRq/HomePolicyQuoteInqRq/CurCd,currency
/ACORD/InsuranceSvcRq/HomePolicyQuoteInqRq/InsuredOrPrincipal[InsuredOrPrincipalInfo/InsuredOrPrincipalRoleCd!='Insured'] | /ACORD/InsuranceSvcRq/HomePolicyQuoteInqRq/InsuredOrPrincipal[count(InsuredOrPrincipalInfo/InsuredOrPrincipalRoleCd)=0]/GeneralPartyInfo/Communications/PhoneInfo[PhoneTypeCd='Phone' and CommunicationUseCd='Home']/PhoneNumber,person.{ref}.homePhone
@index(/ACORD/InsuranceSvcRq/HomePolicyQuoteInqRq/InsuredOrPrincipal[InsuredOrPrincipalInfo/InsuredOrPrincipalRoleCd!='Insured'] | /ACORD/InsuranceSvcRq/HomePolicyQuoteInqRq/InsuredOrPrincipal[count(InsuredOrPrincipalInfo/InsuredOrPrincipalRoleCd)=0]),secondaryInsured.person.ref
/ACORD/InsuranceSvcRq/HomePolicyQuoteInqRq/HomeLineBusiness/Watercraft/Horsepower/UnitMeasurementCd,watercraft.{ref}.powerUnit
/ACORD/InsuranceSvcRq/HomePolicyQuoteInqRq/InsuredOrPrincipal[InsuredOrPrincipalInfo/InsuredOrPrincipalRoleCd='Insured']/GeneralPartyInfo/Communications/PhoneInfo/CommunicationUseCd,person.{ref}.communicationUse
/ACORD/InsuranceSvcRq/SAPI.partner.experienceId,partner.experienceId
/ACORD/InsuranceSvcRq/HomePolicyQuoteInqRq/InsuredOrPrincipal[InsuredOrPrincipalInfo/InsuredOrPrincipalRoleCd='Insured']/GeneralPartyInfo/Addr[AddrTypeCd='PreviousAddress']/County,address.{ref}.county
/ACORD/InsuranceSvcRq/HomePolicyQuoteInqRq/InsuredOrPrincipal[InsuredOrPrincipalInfo/InsuredOrPrincipalRoleCd='Insured']/GeneralPartyInfo/Addr[AddrTypeCd='PhysicalRisk']/../../ItemIdInfo/AgencyId,address.{ref}.agency
/ACORD/InsuranceSvcRq/PersAutoPolicyQuoteInqRq/PersPolicy/VehicleRegistrationQue,policy.auto.vehicleRegistration
/ACORD/InsuranceSvcRq/HomePolicyQuoteInqRq/HomeLineBusiness/Watercraft/Speed/NumUnits,watercraft.{ref}.speed
/ACORD/InsuranceSvcRq/HomePolicyQuoteInqRq/HomeLineBusiness/Watercraft/Speed/UnitMeasurementCd,watercraft.{ref}.speedUnit
/ACORD/InsuranceSvcRq/HomePolicyQuoteInqRq/InsuredOrPrincipal[InsuredOrPrincipalInfo/InsuredOrPrincipalRoleCd='Insured']/GeneralPartyInfo/Addr[AddrTypeCd='PreviousAddress']/../../ItemIdInfo/AgencyId,address.{ref}.agency
/ACORD/InsuranceSvcRq/PersAutoPolicyQuoteInqRq/PersPolicy/ContractTerm/DurationPeriod[UnitMeasurementCd='MONTH']/NumUnits,policy.auto.durationPeriod
/ACORD/InsuranceSvcRq/HomePolicyQuoteInqRq/RqUID,inquiryId
/ACORD/InsuranceSvcRq/HomePolicyQuoteInqRq/PersPolicy/PersApplicationInfo/LengthTimePreviousAddr/DurationPeriod/UnitMeasurementCd,policy.previousAddress.unitMeasurementCd
/ACORD/InsuranceSvcRq/HomePolicyQuoteInqRq/Producer/GeneralPartyInfo/NameInfo/TaxIdentity/TaxId,person.{ref}.taxId
/ACORD/InsuranceSvcRq/HomePolicyQuoteInqRq/InsuredOrPrincipal[InsuredOrPrincipalInfo/InsuredOrPrincipalRoleCd='Insured']/GeneralPartyInfo/Addr/StateProvCd,address.{ref}.state
/ACORD/InsuranceSvcRq/HomePolicyQuoteInqRq/InsuredOrPrincipal[InsuredOrPrincipalInfo/InsuredOrPrincipalRoleCd!='Insured'] | /ACORD/InsuranceSvcRq/HomePolicyQuoteInqRq/InsuredOrPrincipal[count(InsuredOrPrincipalInfo/InsuredOrPrincipalRoleCd)=0]/GeneralPartyInfo/Communications/PhoneInfo/PhoneTypeCd,person.{ref}.phoneType
/ACORD/InsuranceSvcRq/HomePolicyQuoteInqRq/InsuredOrPrincipal[InsuredOrPrincipalInfo/InsuredOrPrincipalRoleCd!='Insured'] | /ACORD/InsuranceSvcRq/HomePolicyQuoteInqRq/InsuredOrPrincipal[count(InsuredOrPrincipalInfo/InsuredOrPrincipalRoleCd)=0]/GeneralPartyInfo/Addr/PostalCode,address.{ref}.zipcode
/ACORD/InsuranceSvcRq/HomePolicyQuoteInqRq/InsuredOrPrincipal[InsuredOrPrincipalInfo/InsuredOrPrincipalRoleCd!='Insured'] | /ACORD/InsuranceSvcRq/HomePolicyQuoteInqRq/InsuredOrPrincipal[count(InsuredOrPrincipalInfo/InsuredOrPrincipalRoleCd)=0]/GeneralPartyInfo/Communications/PhoneInfo[CommunicationUseCd='Work']/PhoneNumber,person.{ref}.workPhone
/ACORD/InsuranceSvcRq/HomePolicyQuoteInqRq/HomeLineBusiness/Dwell/DwellStateSupplement/DistanceToOceanOrOtherBodyWater/NumUnits,property.feetToWater
/ACORD/InsuranceSvcRq/HomePolicyQuoteInqRq/PersPolicy/PersApplicationInfo/LengthTimePreviousAddr/DurationPeriod/NumUnits,policy.previousAddress.lengthOfResidence
/ACORD/InsuranceSvcRq/HomePolicyQuoteInqRq/PersPolicy/ContractTerm/EffectiveDt,offer.creationDate
/ACORD/InsuranceSvcRq/HomePolicyQuoteInqRq/InsuredOrPrincipal[InsuredOrPrincipalInfo/InsuredOrPrincipalRoleCd='Insured']/GeneralPartyInfo/Addr/Addr1,address.{ref}.line1
/ACORD/InsuranceSvcRq/HomePolicyQuoteInqRq/InsuredOrPrincipal[InsuredOrPrincipalInfo/InsuredOrPrincipalRoleCd='Insured']/GeneralPartyInfo/Addr[AddrTypeCd='PreviousAddress']/AddrTypeCd,address.{ref}.addressType
/ACORD/InsuranceSvcRq/HomePolicyQuoteInqRq/InsuredOrPrincipal[InsuredOrPrincipalInfo/InsuredOrPrincipalRoleCd='Insured']/GeneralPartyInfo/Addr/Addr2,address.{ref}.line2
/ACORD/InsuranceSvcRq/HomePolicyQuoteInqRq/InsuredOrPrincipal[InsuredOrPrincipalInfo/InsuredOrPrincipalRoleCd!='Insured'] | /ACORD/InsuranceSvcRq/HomePolicyQuoteInqRq/InsuredOrPrincipal[count(InsuredOrPrincipalInfo/InsuredOrPrincipalRoleCd)=0]/InsuredOrPrincipalInfo/PersonInfo/TitleRelationshipCd,person.{ref}.relationshipToApplicant
/ACORD/InsuranceSvcRq/HomePolicyQuoteInqRq/Producer/GeneralPartyInfo/Addr/StateProvCd,address.{ref}.state
/ACORD/InsuranceSvcRq/HomePolicyQuoteInqRq/TransactionRequestDt,transactionDate
/ACORD/InsuranceSvcRq/HomePolicyQuoteInqRq/InsuredOrPrincipal[InsuredOrPrincipalInfo/InsuredOrPrincipalRoleCd='Insured']/GeneralPartyInfo/Addr/City,address.{ref}.city
/ACORD/InsuranceSvcRq/HomePolicyQuoteInqRq/HomeLineBusiness/Watercraft/WaterUnitTypeCd,watercraft.{ref}.watercraftType
/ACORD/InsuranceSvcRq/HomePolicyQuoteInqRq/InsuredOrPrincipal[InsuredOrPrincipalInfo/InsuredOrPrincipalRoleCd='Insured']/GeneralPartyInfo/Addr[AddrTypeCd='PreviousAddress']/City,address.{ref}.city
/ACORD/InsuranceSvcRq/HomePolicyQuoteInqRq/InsuredOrPrincipal[InsuredOrPrincipalInfo/InsuredOrPrincipalRoleCd='Insured']/InsuredOrPrincipalInfo/PersonInfo/BirthDt,person.{ref}.dob
/ACORD/InsuranceSvcRq/HomePolicyQuoteInqRq/InsuredOrPrincipal[InsuredOrPrincipalInfo/InsuredOrPrincipalRoleCd='Insured']/GeneralPartyInfo/Addr[AddrTypeCd='PhysicalRisk']/StateProvCd,address.{ref}.state
/ACORD/InsuranceSvcRq/HomePolicyQuoteInqRq/HomeLineBusiness/QuestionAnswer[QuestionCd='GENRL44']/YesNoCd,property.hasWatercraft
/ACORD/InsuranceSvcRq/HomePolicyQuoteInqRq/InsuredOrPrincipal[InsuredOrPrincipalInfo/InsuredOrPrincipalRoleCd='Insured']/GeneralPartyInfo/Addr[AddrTypeCd='PhysicalRisk']/./node(),address.{ref}.physicalRiskAddrFlag
/ACORD/InsuranceSvcRq/HomePolicyQuoteInqRq/HomeLineBusiness/Dwell/AnimalExposureInfo[AnimalTypeCd='Dog']/BreedCd,property.hasHighRiskDog
/ACORD/InsuranceSvcRq/PersAutoPolicyQuoteInqRq/Producer/ProducerInfo/ContractNumber,producer.{ref}.contract
@index(/ACORD/InsuranceSvcRq/PersAutoPolicyQuoteInqRq/Producer),person.producer.ref
/ACORD/InsuranceSvcRq/HomePolicyQuoteInqRq/Producer/GeneralPartyInfo/Addr/PostalCode,address.{ref}.zipcode
/ACORD/InsuranceSvcRq/PersAutoPolicyQuoteInqRq/PersPolicy/ContractTerm/ExpirationDt,policy.auto.expirationDate
/ACORD/InsuranceSvcRq/HomePolicyQuoteInqRq/PersPolicy/Loss/CatastropheLossInd,incident.{ref}.catastrophicLoss
/ACORD/InsuranceSvcRq/HomePolicyQuoteInqRq/InsuredOrPrincipal[InsuredOrPrincipalInfo/InsuredOrPrincipalRoleCd='Insured']/GeneralPartyInfo/Addr[AddrTypeCd='PhysicalRisk']/PostalCode,address.{ref}.zipcode
/ACORD/InsuranceSvcRq/HomePolicyQuoteInqRq/InsuredOrPrincipal[InsuredOrPrincipalInfo/InsuredOrPrincipalRoleCd='Insured']/GeneralPartyInfo/Addr[AddrTypeCd='PhysicalRisk']/City,address.{ref}.city
/ACORD/InsuranceSvcRq/HomePolicyQuoteInqRq/HomeLineBusiness/Dwell/AnimalExposureInfo[AnimalTypeCd='Dog']/AnimalTypeCd,property.hasDogInHome
/ACORD/InsuranceSvcRq/HomePolicyQuoteInqRq/InsuredOrPrincipal[InsuredOrPrincipalInfo/InsuredOrPrincipalRoleCd!='Insured'] | /ACORD/InsuranceSvcRq/HomePolicyQuoteInqRq/InsuredOrPrincipal[count(InsuredOrPrincipalInfo/InsuredOrPrincipalRoleCd)=0]/GeneralPartyInfo/NameInfo/TaxIdentity/TaxId,person.{ref}.taxId
/ACORD/InsuranceSvcRq/RqUID,MSA.inquiryid
/ACORD/InsuranceSvcRq/HomePolicyQuoteInqRq/InsuredOrPrincipal[InsuredOrPrincipalInfo/InsuredOrPrincipalRoleCd='Insured']/GeneralPartyInfo/Addr[AddrTypeCd='PreviousAddress']/StateProvCd,address.{ref}.state
/ACORD/InsuranceSvcRq/HomePolicyQuoteInqRq/HomeLineBusiness/QuestionAnswer[QuestionCd='GENRL06']/YesNoCd,person.*.insurancePrior.lapse
/ACORD/InsuranceSvcRq/HomePolicyQuoteInqRq/InsuredOrPrincipal[InsuredOrPrincipalInfo/InsuredOrPrincipalRoleCd='Insured']/GeneralPartyInfo/NameInfo/PersonName/NameSuffix,person.{ref}.suffix
/ACORD/InsuranceSvcRq/HomePolicyQuoteInqRq/Producer/GeneralPartyInfo/Communications/PhoneInfo[PhoneTypeCd='Phone']/PhoneNumber,person.{ref}.phone
/ACORD/InsuranceSvcRq/HomePolicyQuoteInqRq/HomeLineBusiness/Watercraft/Horsepower/NumUnits,watercraft.{ref}.power
/ACORD/InsuranceSvcRq/HomePolicyQuoteInqRq/InsuredOrPrincipal[InsuredOrPrincipalInfo/InsuredOrPrincipalRoleCd!='Insured'] | /ACORD/InsuranceSvcRq/HomePolicyQuoteInqRq/InsuredOrPrincipal[count(InsuredOrPrincipalInfo/InsuredOrPrincipalRoleCd)=0]/GeneralPartyInfo/Addr/Addr2,address.{ref}.line2
/ACORD/InsuranceSvcRq/HomePolicyQuoteInqRq/InsuredOrPrincipal[InsuredOrPrincipalInfo/InsuredOrPrincipalRoleCd!='Insured'] | /ACORD/InsuranceSvcRq/HomePolicyQuoteInqRq/InsuredOrPrincipal[count(InsuredOrPrincipalInfo/InsuredOrPrincipalRoleCd)=0]/GeneralPartyInfo/Addr/Addr1,address.{ref}.line1
/ACORD/InsuranceSvcRq/HomePolicyQuoteInqRq/PersPolicy/OtherOrPriorPolicy/InsurerName,person.{ref}.insurancePrior.insurer
/ACORD/InsuranceSvcRq/HomePolicyQuoteInqRq/PersPolicy/Loss/TotalPaidAmt/Amt,incident.{ref}.totalAmountPaid
/ACORD/InsuranceSvcRq/HomePolicyQuoteInqRq/PersPolicy/ContractTerm/ExpirationDt,policy.home.expirationDate
/ACORD/InsuranceSvcRq/HomePolicyQuoteInqRq/PersPolicy/Eligibility/com.msa_compautoloss,policy.compAutoLoss
/ACORD/InsuranceSvcRq/PersAutoPolicyQuoteInqRq/PersPolicy/PersApplicationInfo/ResidenceOwnedRentedCd,residencyType
@index(/ACORD/InsuranceSvcRq/HomePolicyQuoteInqRq/InsuredOrPrincipal[InsuredOrPrincipalInfo/InsuredOrPrincipalRoleCd='Insured']/GeneralPartyInfo/Addr[AddrTypeCd='PhysicalRisk']),primaryInsured.physicalRisk.address.ref
/ACORD/InsuranceSvcRq/HomePolicyQuoteInqRq/InsuredOrPrincipal[InsuredOrPrincipalInfo/InsuredOrPrincipalRoleCd='Insured']/GeneralPartyInfo/NameInfo/PersonName/Surname,person.{ref}.lastName
/ACORD/InsuranceSvcRq/HomePolicyQuoteInqRq/Producer/ProducerInfo/PlacingOffice,producer.{ref}.office
/ACORD/InsuranceSvcRq/HomePolicyQuoteInqRq/Producer/GeneralPartyInfo/NameInfo/PersonName/Surname,person.{ref}.lastName
/ACORD/InsuranceSvcRq/HomePolicyQuoteInqRq/InsuredOrPrincipal[InsuredOrPrincipalInfo/InsuredOrPrincipalRoleCd!='Insured'] | /ACORD/InsuranceSvcRq/HomePolicyQuoteInqRq/InsuredOrPrincipal[count(InsuredOrPrincipalInfo/InsuredOrPrincipalRoleCd)=0]/GeneralPartyInfo/Communications/EmailInfo/EmailAddr,person.{ref}.email
/ACORD/InsuranceSvcRq/HomePolicyQuoteInqRq/InsuredOrPrincipal[InsuredOrPrincipalInfo/InsuredOrPrincipalRoleCd!='Insured'] | /ACORD/InsuranceSvcRq/HomePolicyQuoteInqRq/InsuredOrPrincipal[count(InsuredOrPrincipalInfo/InsuredOrPrincipalRoleCd)=0]/GeneralPartyInfo/Addr/StateProvCd,address.{ref}.state
/ACORD/InsuranceSvcRq/HomePolicyQuoteInqRq/HomeLineBusiness/Dwell/AnimalExposureInfo[AnimalTypeCd='Dog']/BiteHistoryInd,animal.hasBiteIncident
/ACORD/InsuranceSvcRq/HomePolicyQuoteInqRq/HomeLineBusiness/QuestionAnswer[QuestionCd='MSASwimmingPoolEligibility']/YesNoCd,property.poolEligibility
/ACORD/InsuranceSvcRq/HomePolicyQuoteInqRq/Producer/GeneralPartyInfo/Addr/City,address.{ref}.city
/ACORD/InsuranceSvcRq/HomePolicyQuoteInqRq/InsuredOrPrincipal/InsuredOrPrincipalInfo/PersonInfo/MiscParty/MiscPartyInfo/MiscPartyRoleCd,person.*.miscPartyRole
/ACORD/InsuranceSvcRq/HomePolicyQuoteInqRq/Producer/ProducerInfo/ContractNumber,producer.{ref}.contract
/ACORD/InsuranceSvcRq/HomePolicyQuoteInqRq/Producer/GeneralPartyInfo/Addr/County,address.{ref}.county
/ACORD/InsuranceSvcRq/HomePolicyQuoteInqRq/Producer/GeneralPartyInfo/NameInfo/PersonName/OtherGivenName,person.{ref}.middleName
/ACORD/InsuranceSvcRq/HomePolicyQuoteInqRq/InsuredOrPrincipal[InsuredOrPrincipalInfo/InsuredOrPrincipalRoleCd='Insured']/GeneralPartyInfo/NameInfo/TaxIdentity/TaxId,person.{ref}.taxId
/ACORD/InsuranceSvcRq/HomePolicyQuoteInqRq/HomeLineBusiness/QuestionAnswer[QuestionCd='GENRL19']/YesNoCd,property.ownedSnowmobiles
/ACORD/InsuranceSvcRq/HomePolicyQuoteInqRq/InsuredOrPrincipal[InsuredOrPrincipalInfo/InsuredOrPrincipalRoleCd='Insured']/GeneralPartyInfo/NameInfo/PersonName/OtherGivenName,person.{ref}.middleName
/ACORD/InsuranceSvcRq/HomePolicyQuoteInqRq/Producer/GeneralPartyInfo/NameInfo/TaxIdentity/TaxIdTypeCd,person.{ref}.taxType
/ACORD/InsuranceSvcRq/HomePolicyQuoteInqRq/InsuredOrPrincipal[InsuredOrPrincipalInfo/InsuredOrPrincipalRoleCd='Insured']/GeneralPartyInfo/Addr[AddrTypeCd='PhysicalRisk']/AddrTypeCd,address.{ref}.addressType
/ACORD/InsuranceSvcRq/HomePolicyQuoteInqRq/HomeLineBusiness/Watercraft/Length/NumUnits,watercraft.{ref}.length
/ACORD/InsuranceSvcRq/HomePolicyQuoteInqRq/InsuredOrPrincipal[InsuredOrPrincipalInfo/InsuredOrPrincipalRoleCd!='Insured'] | /ACORD/InsuranceSvcRq/HomePolicyQuoteInqRq/InsuredOrPrincipal[count(InsuredOrPrincipalInfo/InsuredOrPrincipalRoleCd)=0]/GeneralPartyInfo/NameInfo/PersonName/OtherGivenName,person.{ref}.middleName
/ACORD/InsuranceSvcRq/SAPI.partner.producerCode,agent.producerCode
/ACORD/InsuranceSvcRq/HomePolicyQuoteInqRq/InsuredOrPrincipal[InsuredOrPrincipalInfo/InsuredOrPrincipalRoleCd!='Insured'] | /ACORD/InsuranceSvcRq/HomePolicyQuoteInqRq/InsuredOrPrincipal[count(InsuredOrPrincipalInfo/InsuredOrPrincipalRoleCd)=0]/InsuredOrPrincipalInfo/PersonInfo/OccupationDesc,person.{ref}.occupation
/ACORD/InsuranceSvcRq/HomePolicyQuoteInqRq/InsuredOrPrincipal[InsuredOrPrincipalInfo/InsuredOrPrincipalRoleCd='Insured']/GeneralPartyInfo/Communications/PhoneInfo/PhoneTypeCd,person.{ref}.phoneType
@index(/ACORD/InsuranceSvcRq/HomePolicyQuoteInqRq/Producer/GeneralPartyInfo/Addr),producer.address.ref
/ACORD/InsuranceSvcRq/PersAutoPolicyQuoteInqRq/PersPolicy/ContractTerm/DurationPeriod[UnitMeasurementCd='MONTHS']/NumUnits,policy.auto.durationPeriod
/ACORD/InsuranceSvcRq/PersAutoPolicyQuoteInqRq/PersPolicy/Eligibility,policy.eligibility
/ACORD/InsuranceSvcRq/HomePolicyQuoteInqRq/HomeLineBusiness/Watercraft/PropulsionTypeCd,watercraft.{ref}.propulsionType
@index(/ACORD/InsuranceSvcRq/HomePolicyQuoteInqRq/Producer),producer.person.ref
/ACORD/InsuranceSvcRq/HomePolicyQuoteInqRq/InsuredOrPrincipal[InsuredOrPrincipalInfo/InsuredOrPrincipalRoleCd!='Insured'] | /ACORD/InsuranceSvcRq/HomePolicyQuoteInqRq/InsuredOrPrincipal[count(InsuredOrPrincipalInfo/InsuredOrPrincipalRoleCd)=0]/GeneralPartyInfo/NameInfo/PersonName/NameSuffix,person.{ref}.suffix
/ACORD/InsuranceSvcRq/HomePolicyQuoteInqRq/PersPolicy/Eligibility/com.msa_afautoloss,policy.afAutoLoss
@index(/ACORD/InsuranceSvcRq/HomePolicyQuoteInqRq/HomeLineBusiness/Watercraft),property.watercraft.ref
/ACORD/InsuranceSvcRq/HomePolicyQuoteInqRq/InsuredOrPrincipal[InsuredOrPrincipalInfo/InsuredOrPrincipalRoleCd!='Insured'] | /ACORD/InsuranceSvcRq/HomePolicyQuoteInqRq/InsuredOrPrincipal[count(InsuredOrPrincipalInfo/InsuredOrPrincipalRoleCd)=0]/GeneralPartyInfo/Communications/PhoneInfo[CommunicationUseCd='Cell']/PhoneNumber,person.{ref}.cellPhone
/ACORD/InsuranceSvcRq/HomePolicyQuoteInqRq/InsuredOrPrincipal[InsuredOrPrincipalInfo/InsuredOrPrincipalRoleCd='Insured']/GeneralPartyInfo/Addr[AddrTypeCd='PhysicalRisk']/County,address.{ref}.county
/ACORD/InsuranceSvcRq/PersAutoPolicyQuoteInqRq/PersPolicy/PersApplicationInfo/InsuredOrPrincipal/GeneralPartyInfo/NameInfo/TaxIdentity/TaxId,person.{ref}.taxId
/ACORD/InsuranceSvcRq/PersAutoPolicyQuoteInqRq/PersPolicy/ContractTerm/EffectiveDt,offer.creationDate
/ACORD/InsuranceSvcRq/HomePolicyQuoteInqRq/InsuredOrPrincipal[InsuredOrPrincipalInfo/InsuredOrPrincipalRoleCd='Insured']/GeneralPartyInfo/Addr[AddrTypeCd='PhysicalRisk']/Addr2,address.{ref}.line2
/ACORD/SignonRq/CustLoginId,agent.userId
/ACORD/InsuranceSvcRq/HomePolicyQuoteInqRq/InsuredOrPrincipal[InsuredOrPrincipalInfo/InsuredOrPrincipalRoleCd='Insured']/GeneralPartyInfo/Communications/EmailInfo/EmailAddr,person.{ref}.email
/ACORD/InsuranceSvcRq/HomePolicyQuoteInqRq/InsuredOrPrincipal[InsuredOrPrincipalInfo/InsuredOrPrincipalRoleCd='Insured']/GeneralPartyInfo/Addr[AddrTypeCd='PhysicalRisk']/Addr1,address.{ref}.line1
/ACORD/InsuranceSvcRq/PersAutoPolicyQuoteInqRq/PersPolicy/ContractTerm/DurationPeriod[UnitMeasurementCd='MON']/NumUnits,policy.auto.durationPeriod
@index(/ACORD/InsuranceSvcRq/HomePolicyQuoteInqRq/InsuredOrPrincipal[InsuredOrPrincipalInfo/InsuredOrPrincipalRoleCd='Insured']/GeneralPartyInfo/Addr[AddrTypeCd='PreviousAddress']),primaryInsured.previous.address.ref
/ACORD/InsuranceSvcRq/PersAutoPolicyQuoteInqRq/PersPolicy/com.msagroup_SupportingHO,policy.auto.existingProduct
/ACORD/InsuranceSvcRq/HomePolicyQuoteInqRq/PersPolicy/OtherOrPriorPolicy/ContractTerm/ExpirationDt,person.{ref}.insurancePrior.expirationDate
/ACORD/InsuranceSvcRq/HomePolicyQuoteInqRq/InsuredOrPrincipal[InsuredOrPrincipalInfo/InsuredOrPrincipalRoleCd!='Insured'] | /ACORD/InsuranceSvcRq/HomePolicyQuoteInqRq/InsuredOrPrincipal[count(InsuredOrPrincipalInfo/InsuredOrPrincipalRoleCd)=0]/GeneralPartyInfo/NameInfo/PersonName/GivenName,person.{ref}.firstName
/ACORD/InsuranceSvcRq/HomePolicyQuoteInqRq/Producer/Producer/ProducerInfo/ResProducerLicenseNumber,producer.{ref}.licenseNumber
/ACORD/InsuranceSvcRq/HomePolicyQuoteInqRq/InsuredOrPrincipal[InsuredOrPrincipalInfo/InsuredOrPrincipalRoleCd='Insured']/GeneralPartyInfo/NameInfo/PersonName/GivenName,person.{ref}.firstName
/ACORD/InsuranceSvcRq/HomePolicyQuoteInqRq/InsuredOrPrincipal[InsuredOrPrincipalInfo/InsuredOrPrincipalRoleCd!='Insured'] | /ACORD/InsuranceSvcRq/HomePolicyQuoteInqRq/InsuredOrPrincipal[count(InsuredOrPrincipalInfo/InsuredOrPrincipalRoleCd)=0]/GeneralPartyInfo/NameInfo/PersonName/Surname,person.{ref}.lastName
/ACORD/InsuranceSvcRq/HomePolicyQuoteInqRq/InsuredOrPrincipal[InsuredOrPrincipalInfo/InsuredOrPrincipalRoleCd='Insured']/GeneralPartyInfo/Addr[AddrTypeCd='PreviousAddress']/Addr2,address.{ref}.line2
/ACORD/InsuranceSvcRq/HomePolicyQuoteInqRq/InsuredOrPrincipal[InsuredOrPrincipalInfo/InsuredOrPrincipalRoleCd='Insured']/GeneralPartyInfo/Addr[AddrTypeCd='PreviousAddress']/Addr1,address.{ref}.line1
/ACORD/InsuranceSvcRq/HomePolicyQuoteInqRq/InsuredOrPrincipal[InsuredOrPrincipalInfo/InsuredOrPrincipalRoleCd!='Insured'] | /ACORD/InsuranceSvcRq/HomePolicyQuoteInqRq/InsuredOrPrincipal[count(InsuredOrPrincipalInfo/InsuredOrPrincipalRoleCd)=0]/GeneralPartyInfo/Addr/City,address.{ref}.city
/ACORD/InsuranceSvcRq/HomePolicyQuoteInqRq/Producer/GeneralPartyInfo/NameInfo/PersonName/GivenName,person.{ref}.firstName
/ACORD/InsuranceSvcRq/HomePolicyQuoteInqRq/InsuredOrPrincipal[InsuredOrPrincipalInfo/InsuredOrPrincipalRoleCd!='Insured'] | /ACORD/InsuranceSvcRq/HomePolicyQuoteInqRq/InsuredOrPrincipal[count(InsuredOrPrincipalInfo/InsuredOrPrincipalRoleCd)=0]/InsuredOrPrincipalInfo/PersonInfo/BirthDt,person.{ref}.dob
/ACORD/InsuranceSvcRq/HomePolicyQuoteInqRq/InsuredOrPrincipal[InsuredOrPrincipalInfo/InsuredOrPrincipalRoleCd='Insured']/GeneralPartyInfo/Communications/PhoneInfo[PhoneTypeCd='Phone']/PhoneNumber,person.{ref}.phone
/ACORD/InsuranceSvcRq/HomePolicyQuoteInqRq/PersPolicy/Loss/LossCauseCd,incident.{ref}.lossDescription
/ACORD/InsuranceSvcRq/HomePolicyQuoteInqRq/Producer/GeneralPartyInfo/Addr/Addr2,address.{ref}.line2
/ACORD/InsuranceSvcRq/HomePolicyQuoteInqRq/Producer/GeneralPartyInfo/Addr/Addr1,address.{ref}.line1
/ACORD/InsuranceSvcRq/HomePolicyQuoteInqRq/InsuredOrPrincipal[InsuredOrPrincipalInfo/InsuredOrPrincipalRoleCd='Insured']/GeneralPartyInfo/Addr[AddrTypeCd='PreviousAddress']/./node(),address.{ref}.previousAddrFlag
/ACORD/InsuranceSvcRq/HomePolicyQuoteInqRq/InsuredOrPrincipal[InsuredOrPrincipalInfo/InsuredOrPrincipalRoleCd='Insured']/GeneralPartyInfo/Addr/PostalCode,address.{ref}.zipcode
/ACORD/InsuranceSvcRq/HomePolicyQuoteInqRq/HomeLineBusiness/Watercraft/Length/UnitMeasurementCd,watercraft.{ref}.lengthUnit
/ACORD/InsuranceSvcRq/HomePolicyQuoteInqRq/PersPolicy/Loss/LossDt,incident.{ref}.lossDate
/ACORD/InsuranceSvcRq/HomePolicyQuoteInqRq/InsuredOrPrincipal[InsuredOrPrincipalInfo/InsuredOrPrincipalRoleCd!='Insured'] | /ACORD/InsuranceSvcRq/HomePolicyQuoteInqRq/InsuredOrPrincipal[count(InsuredOrPrincipalInfo/InsuredOrPrincipalRoleCd)=0]/ItemIdInfo/AgencyId,person.{ref}.agency
/ACORD/InsuranceSvcRq/HomePolicyQuoteInqRq/InsuredOrPrincipal/InsuredOrPrincipalInfo/PersonInfo/MiscParty/GeneralPartyInfo/NameInfo/CommlName/CommercialName,person.*.miscParty
/ACORD/InsuranceSvcRq/HomePolicyQuoteInqRq/Producer/ItemIdInfo/AgencyId,producer.producerId
/ACORD/InsuranceSvcRq/HomePolicyQuoteInqRq/InsuredOrPrincipal[InsuredOrPrincipalInfo/InsuredOrPrincipalRoleCd!='Insured'] | /ACORD/InsuranceSvcRq/HomePolicyQuoteInqRq/InsuredOrPrincipal[count(InsuredOrPrincipalInfo/InsuredOrPrincipalRoleCd)=0]/GeneralPartyInfo/Communications/PhoneInfo/CommunicationUseCd,person.{ref}.communicationUse
