ACORD,SAPI
/ACORD/InsuranceSvcRq/PersAutoPolicyQuoteInqRq/PersPolicy/LOBCd,product.lob
/ACORD/InsuranceSvcRq/HomePolicyQuoteInqRq/HomeLineBusiness/LOBCd,product.lob
/ACORD/SignonRq/ClientApp/Name,product.appName
